UART/UART_TX/UART_TX.vcd
$date
	Thu Jan  8 00:40:09 2026
$end
$version
	QuestaSim Version 2021.1
$end
$timescale
	1ps
$end

$scope module UART_TX_tb $end
$var parameter 32 ! CLOCK_PERIOD $end
$var reg 4 " count [3:0] $end
$var integer 32 # correct $end
$var integer 32 $ error $end
$var reg 1 % clk_tb $end
$var reg 1 & rst_n_tb $end
$var reg 8 ' P_DATA_tb [7:0] $end
$var reg 1 ( Data_Valid_tb $end
$var reg 1 ) Par_En_tb $end
$var reg 1 * Par_Typ_tb $end
$var wire 1 + TX_OUT_tb $end
$var wire 1 , Busy_tb $end
$var reg 1 - TX_OUT_expec $end
$var reg 1 . Busy_expec $end
$var reg 1 / Busy_expec_temp $end
$var reg 1 0 done $end
$var reg 8 1 P_DATA_reg [7:0] $end

$scope task initialize $end
$upscope $end

$scope task reset $end
$upscope $end

$scope task check_out $end
$upscope $end

$scope module DUT $end
$var wire 1 2 clk $end
$var wire 1 3 rst_n $end
$var wire 1 4 P_DATA [7] $end
$var wire 1 5 P_DATA [6] $end
$var wire 1 6 P_DATA [5] $end
$var wire 1 7 P_DATA [4] $end
$var wire 1 8 P_DATA [3] $end
$var wire 1 9 P_DATA [2] $end
$var wire 1 : P_DATA [1] $end
$var wire 1 ; P_DATA [0] $end
$var wire 1 < Data_Valid $end
$var wire 1 = Par_En $end
$var wire 1 > Par_Typ $end
$var wire 1 + TX_OUT $end
$var wire 1 , Busy $end
$var wire 1 ? mux_sel [1] $end
$var wire 1 @ mux_sel [0] $end
$var wire 1 A ser_en $end
$var wire 1 B ser_done $end
$var wire 1 C capture $end
$var wire 1 D s_data $end
$var wire 1 E parity $end

$scope module FSM_U0 $end
$var parameter 3 F IDLE $end
$var parameter 3 G START_BIT $end
$var parameter 3 H DATA_BITS $end
$var parameter 3 I PARITY_BIT $end
$var parameter 3 J STOP_BIT $end
$var wire 1 2 clk $end
$var wire 1 3 rst_n $end
$var wire 1 < Data_Valid $end
$var wire 1 B Ser_Done $end
$var wire 1 = Par_En $end
$var reg 2 K MUX_SEL [1:0] $end
$var reg 1 L Ser_En $end
$var reg 1 M Busy $end
$var reg 1 N Capture $end
$var reg 3 O current_state [2:0] $end
$var reg 3 P next_state [2:0] $end
$upscope $end

$scope module Serializer_U1 $end
$var wire 1 2 clk $end
$var wire 1 3 rst_n $end
$var wire 1 4 P_DATA [7] $end
$var wire 1 5 P_DATA [6] $end
$var wire 1 6 P_DATA [5] $end
$var wire 1 7 P_DATA [4] $end
$var wire 1 8 P_DATA [3] $end
$var wire 1 9 P_DATA [2] $end
$var wire 1 : P_DATA [1] $end
$var wire 1 ; P_DATA [0] $end
$var wire 1 A Ser_En $end
$var reg 1 Q Ser_Data $end
$var reg 1 R Ser_Done $end
$var reg 8 S data_reg [7:0] $end
$var reg 3 T bit_count [2:0] $end
$upscope $end

$scope module Parity_Calc_U2 $end
$var wire 1 2 clk $end
$var wire 1 3 rst_n $end
$var wire 1 4 P_DATA [7] $end
$var wire 1 5 P_DATA [6] $end
$var wire 1 6 P_DATA [5] $end
$var wire 1 7 P_DATA [4] $end
$var wire 1 8 P_DATA [3] $end
$var wire 1 9 P_DATA [2] $end
$var wire 1 : P_DATA [1] $end
$var wire 1 ; P_DATA [0] $end
$var wire 1 C Capture $end
$var wire 1 > Par_Type $end
$var reg 1 U parity_out $end
$var reg 8 V data_reg [7:0] $end
$upscope $end

$scope module MUX4x1_U3 $end
$var wire 1 D Ser_Data $end
$var wire 1 E Par_Bit $end
$var wire 1 ? SEL [1] $end
$var wire 1 @ SEL [0] $end
$var reg 1 W OUT $end
$upscope $end
$upscope $end
$upscope $end
$enddefinitions $end
#0
$dumpvars
b0 "
0%
1&
b11111111 '
0(
0)
0*
1-
0.
0/
00
bx 1
bx K
xL
xM
0N
bx O
b0 P
xQ
xR
bx S
bx T
xU
bx V
xW
b101 !
b0 F
b1 G
b11 H
b10 I
b110 J
b0 #
b0 $
x+
x,
x@
x?
xA
xB
0C
xD
xE
0>
0=
0<
1;
1:
19
18
17
16
15
14
13
02
$end
#2000
1%
12
b0 O
b11111111 S
0R
b0 T
0B
0L
1M
b1 K
0M
0A
0,
1@
0?
1W
1+
#4000
0%
02
0&
03
0Q
b0 S
0U
b0 V
0D
0E
#6000
1%
12
#8000
0%
02
1&
b1 #
13
#10000
1%
12
b11111111 S
#12000
0%
02
b10000001 '
1)
1*
b10 #
0:
09
08
07
06
05
1>
1=
#14000
1%
12
1U
b10000001 S
1E
#16000
0%
02
1(
b1100011 '
b1100011 1
1/
b11 #
1.
1:
16
15
04
1<
b1 P
1N
1C
#18000
1%
12
b1 O
b1100011 S
b1100011 V
0N
b11 P
1M
b0 K
1L
0C
1,
1A
0@
0W
0+
#20000
0%
02
b10001101 '
0-
b1 "
b100 #
0:
19
18
06
05
14
#22000
1%
12
1Q
b1 T
b11 O
1D
0L
b10 K
1L
1?
1W
1+
#24000
0%
02
b10010 '
1-
b10 "
b101 #
0;
1:
09
08
17
04
#26000
1%
12
b10 T
#28000
0%
02
b1101 '
0-
1-
b11 "
b110 #
1;
0:
19
18
07
#30000
1%
12
0Q
b11 T
0D
0W
0+
#32000
0%
02
0(
b111101 '
0-
b100 "
b111 #
17
16
0<
#34000
1%
12
b100 T
#36000
0%
02
1(
b10001100 '
b101 "
b1000 #
0;
07
06
14
1<
#38000
1%
12
b101 T
#40000
0%
02
b11000110 '
b110 "
b1001 #
1:
08
15
#42000
1%
12
1Q
b110 T
1D
1W
1+
#44000
0%
02
b10101010 '
1-
b111 "
b1010 #
09
18
16
05
#46000
1%
12
b111 T
#48000
0%
02
b1110111 '
0-
1-
b1000 "
b1011 #
1;
19
08
17
15
04
#50000
1%
12
0Q
1R
b0 T
0D
1B
b10 P
0W
0+
#52000
0%
02
0(
b10001111 '
0-
b1001 "
b1100 #
18
07
06
05
14
0<
#54000
1%
12
b10 O
1Q
b1 T
1D
1W
b110 P
0L
b11 K
1+
0A
1@
#56000
0%
02
b11001110 '
1-
10
b1101 #
0;
15
#58000
1%
12
b11001110 S
0R
b0 T
b110 O
0B
b0 P
b1 K
0?
#60000
0%
02
b11000101 '
0-
1-
0/
00
b0 "
b1110 #
0.
1;
0:
08
#62000
1%
12
b0 O
b11000101 S
0M
0,
#64000
0%
02
b10111101 '
b1111 #
18
17
16
05
#66000
1%
12
b10111101 S
#68000
0%
02
1(
b1100101 '
b1100101 1
1/
b10000 #
1.
08
07
15
04
1<
b1 P
1N
1C
#70000
1%
12
b1 O
b1100101 V
b1100101 S
0N
b11 P
1M
b0 K
1L
0C
1,
1A
0@
0W
0+
#72000
0%
02
b1010 '
0-
b1 "
b10001 #
0;
1:
09
18
06
05
#74000
1%
12
b1 T
b11 O
0L
b10 K
1L
1?
1W
1+
#76000
0%
02
0(
b100000 '
1-
b10 "
b10010 #
0:
08
16
0<
#78000
1%
12
0Q
b10 T
0D
0W
0+
#80000
0%
02
b10011101 '
0-
b11 "
b10011 #
1;
19
18
17
06
14
#82000
1%
12
1Q
b11 T
1D
1W
1+
#84000
0%
02
b10011 '
1-
b100 "
b10100 #
1:
09
08
04
#86000
1%
12
0Q
b100 T
0D
0W
0+
#88000
0%
02
1(
b1010011 '
0-
b101 "
b10101 #
15
1<
#90000
1%
12
b101 T
#92000
0%
02
b11010101 '
b110 "
b10110 #
0:
19
14
#94000
1%
12
1Q
b110 T
1D
1W
1+
#96000
0%
02
0(
b10101110 '
1-
b111 "
b10111 #
0;
1:
18
07
16
05
0<
#98000
1%
12
b111 T
#100000
0%
02
1(
b11001111 '
0-
1-
b1000 "
b11000 #
1;
06
15
1<
#102000
1%
12
0Q
1R
b0 T
0D
1B
b10 P
0W
0+
#104000
0%
02
b1010 '
0-
b1001 "
b11001 #
0;
09
05
04
#106000
1%
12
b10 O
1Q
b1 T
1D
1W
b110 P
0L
b11 K
1+
0A
1@
#108000
0%
02
0(
b111100 '
1-
10
b11010 #
0:
19
17
16
0<
#110000
1%
12
b111100 S
0R
b0 T
b110 O
0B
b0 P
b1 K
0?
#112000
0%
02
b10001010 '
0-
1-
0/
00
b0 "
b11011 #
0.
1:
09
07
06
14
#114000
1%
12
b0 O
b10001010 S
0M
0,
#116000
0%
02
1(
b11011000 '
b11011000 1
1/
b11100 #
1.
0:
17
15
1<
b1 P
1N
1C
#118000
1%
12
b11011000 V
b11011000 S
b1 O
0N
b11 P
1M
b0 K
1L
0C
1,
1A
0@
0W
0+
#120000
0%
02
0(
b10001001 '
0-
b1 "
b11101 #
1;
07
05
0<
#122000
1%
12
b11 O
0Q
b1 T
0D
0L
b10 K
1L
1?
#124000
0%
02
1(
b10110110 '
b10 "
b11110 #
0;
1:
19
08
17
16
1<
#126000
1%
12
b10 T
#128000
0%
02
0(
b10101110 '
b11 "
b11111 #
18
07
0<
#130000
1%
12
b11 T
#132000
0%
02
b101010 '
b100 "
b100000 #
09
04
#134000
1%
12
1Q
b100 T
1D
1W
1+
#136000
0%
02
1(
b1110001 '
1-
b101 "
b100001 #
1;
0:
08
17
15
1<
#138000
1%
12
b101 T
#140000
0%
02
b1001111 '
0-
1-
b110 "
b100010 #
1:
19
18
07
06
#142000
1%
12
0Q
b110 T
0D
0W
0+
#144000
0%
02
b111010 '
0-
b111 "
b100011 #
0;
09
17
16
05
#146000
1%
12
1Q
b111 T
1D
1W
1+
#148000
0%
02
0(
b10101 '
1-
b1000 "
b100100 #
1;
0:
19
08
06
0<
#150000
1%
12
1R
b0 T
1B
b10 P
#152000
0%
02
1(
b11011001 '
0-
1-
b1001 "
b100101 #
09
18
15
14
1<
#154000
1%
12
b10 O
0Q
b1 T
0D
0W
b110 P
0L
b11 K
0+
0A
1@
1W
1+
#156000
0%
02
0(
b1001100 '
0-
1-
10
b100110 #
0;
19
07
04
0<
#158000
1%
12
b1001100 S
0R
b0 T
b110 O
0B
b0 P
b1 K
0?
#160000
0%
02
1(
b10001111 '
0-
1-
0/
00
b0 "
b10001111 1
1/
b100111 #
1;
1:
05
14
1<
b1 P
1N
1C
#162000
1%
12
b10001111 V
b1 O
b10001111 S
0N
b11 P
b0 K
1L
0C
1A
0@
0W
0+
#164000
0%
02
0(
b10110111 '
0-
b1 "
b101000 #
08
17
16
0<
#166000
1%
12
1Q
b1 T
b11 O
0U
1D
0E
0L
b10 K
1L
1?
1W
1+
#168000
0%
02
1(
b1011100 '
1-
b10 "
b101001 #
0;
0:
18
06
15
04
1<
#170000
1%
12
b10 T
#172000
0%
02
b10001001 '
0-
1-
b11 "
b101010 #
1;
09
07
05
14
#174000
1%
12
b11 T
#176000
0%
02
b11010000 '
0-
1-
b100 "
b101011 #
0;
08
17
15
#178000
1%
12
b100 T
#180000
0%
02
b1010001 '
0-
1-
b101 "
b101100 #
1;
04
#182000
1%
12
0Q
b101 T
0D
0W
0+
#184000
0%
02
0(
b1100 '
0-
b110 "
b101101 #
0;
19
18
07
05
0<
#186000
1%
12
b110 T
#188000
0%
02
b11001000 '
b111 "
b101110 #
09
15
14
#190000
1%
12
b111 T
#192000
0%
02
1(
b111101 '
b1000 "
b101111 #
1;
19
17
16
05
04
1<
#194000
1%
12
1Q
1R
b0 T
1D
1B
b10 P
1W
1+
#196000
0%
02
0(
b1111110 '
1-
b1001 "
b110000 #
0;
1:
15
0<
#198000
1%
12
b10 O
b1 T
b110 P
0L
b11 K
0A
1@
0W
0+
#200000
0%
02
1(
b111001 '
0-
10
b110001 #
1;
0:
09
05
1<
#202000
1%
12
b111001 S
0R
b0 T
b110 O
0B
b1 P
1N
b1 K
1C
0?
1W
1+
#204000
0%
02
b11010011 '
1-
0/
00
b0 "
b11010011 1
1/
b110010 #
1:
08
06
15
14
#206000
1%
12
b11010011 V
b1 O
b11010011 S
0N
b11 P
b0 K
1L
0C
1A
0@
0W
0+
#208000
0%
02
b1111000 '
0-
b1 "
b110011 #
0;
0:
18
16
04
#210000
1%
12
b1 T
b11 O
0L
b10 K
1L
1?
1W
1+
#212000
0%
02
b1001001 '
0*
1-
b10 "
b110100 #
1;
07
06
0>
#214000
1%
12
1U
b10 T
1E
#216000
0%
02
b101010 '
0-
1-
b11 "
b110101 #
0;
1:
16
05
#218000
1%
12
0Q
b11 T
0D
0W
0+
#220000
0%
02
0(
b10000110 '
0-
b100 "
b110110 #
19
08
06
14
0<
#222000
1%
12
b100 T
#224000
0%
02
b10011100 '
b101 "
b110111 #
0:
18
17
#226000
1%
12
1Q
b101 T
1D
1W
1+
#228000
0%
02
b100110 '
1-
b110 "
b111000 #
1:
08
07
16
04
#230000
1%
12
0Q
b110 T
0D
0W
0+
#232000
0%
02
1(
b10100011 '
0-
b111 "
b111001 #
1;
09
14
1<
#234000
1%
12
1Q
b111 T
1D
1W
1+
#236000
0%
02
b10110011 '
1-
b1000 "
b111010 #
17
#238000
1%
12
1R
b0 T
1B
b10 P
#240000
0%
02
b1000100 '
0-
1-
b1001 "
b111011 #
0;
0:
19
07
06
15
04
#242000
1%
12
b10 O
b1 T
b110 P
0L
b11 K
0A
1@
#244000
0%
02
b11001011 '
0-
1-
10
b111100 #
1;
1:
09
18
14
#246000
1%
12
b11001011 S
0R
b0 T
b110 O
0B
b1 P
1N
b1 K
1C
0?
#248000
0%
02
0(
b1011010 '
0-
1-
0/
00
b0 "
b111101 #
0.
0;
17
04
0<
0N
b0 P
0C
#250000
1%
12
b0 O
b1011010 S
0M
0,
#252000
0%
02
1(
b11101101 '
b11101101 1
1/
b111110 #
1.
1;
0:
19
07
16
14
1<
b1 P
1N
1C
#254000
1%
12
b11101101 V
b11101101 S
b1 O
0N
b11 P
1M
b0 K
1L
0C
1,
1A
0@
0W
0+
#256000
0%
02
0(
b1100101 '
0-
b1 "
b111111 #
08
04
0<
#258000
1%
12
b11 O
b1 T
0U
0E
0L
b10 K
1L
1?
1W
1+
#260000
0%
02
1(
b11011111 '
1-
b10 "
b1000000 #
1:
18
17
06
14
1<
#262000
1%
12
0Q
b10 T
0D
0W
0+
#264000
0%
02
b1000100 '
0-
b11 "
b1000001 #
0;
0:
08
07
04
#266000
1%
12
1Q
b11 T
1D
1W
1+
#268000
0%
02
0(
b101010 '
1-
b100 "
b1000010 #
1:
09
18
16
05
0<
#270000
1%
12
b100 T
#272000
0%
02
1(
b1110 '
0-
1-
b101 "
b1000011 #
19
06
1<
#274000
1%
12
0Q
b101 T
0D
0W
0+
#276000
0%
02
0(
b10011010 '
0-
b110 "
b1000100 #
09
17
14
0<
#278000
1%
12
1Q
b110 T
1D
1W
1+
#280000
0%
02
1(
b11000011 '
1-
b111 "
b1000101 #
1;
08
07
15
1<
#282000
1%
12
b111 T
#284000
0%
02
0(
b1001110 '
0-
1-
b1000 "
b1000110 #
0;
19
18
04
0<
#286000
1%
12
1R
b0 T
1B
b10 P
#288000
0%
02
1(
b1010 '
0-
1-
b1001 "
b1000111 #
09
05
1<
#290000
1%
12
b10 O
b1 T
b110 P
0L
b11 K
0A
1@
0W
0+
#292000
0%
02
0(
b111000 '
0-
10
b1001000 #
0:
17
16
0<
#294000
1%
12
b111000 S
0R
b0 T
b110 O
0B
b0 P
b1 K
0?
1W
1+
#296000
0%
02
1(
b10111000 '
1-
0/
00
b0 "
b10111000 1
1/
b1001001 #
14
1<
b1 P
1N
1C
#298000
1%
12
b10111000 V
b1 O
b10111000 S
0N
b11 P
b0 K
1L
0C
1A
0@
0W
0+
#300000
0%
02
0(
b10010011 '
0-
b1 "
b1001010 #
1;
1:
08
06
0<
#302000
1%
12
0Q
b1 T
b11 O
0D
0L
b10 K
1L
1?
#304000
0%
02
b1011001 '
b10 "
b1001011 #
0:
18
15
04
#306000
1%
12
b10 T
#308000
0%
02
1(
b1001101 '
b11 "
b1001100 #
19
07
1<
#310000
1%
12
b11 T
#312000
0%
02
b1101101 '
b100 "
b1001101 #
16
#314000
1%
12
1Q
b100 T
1D
1W
1+
#316000
0%
02
0(
b11001010 '
1-
b101 "
b1001110 #
0;
1:
09
06
14
0<
#318000
1%
12
b101 T
#320000
0%
02
b10010101 '
0-
1-
b110 "
b1001111 #
1;
0:
19
08
17
05
#322000
1%
12
b110 T
#324000
0%
02
b100 '
0-
1-
b111 "
b1010000 #
0;
07
04
#326000
1%
12
0Q
b111 T
0D
0W
0+
#328000
0%
02
1(
b1101001 '
0-
b1000 "
b1010001 #
1;
09
18
16
15
1<
#330000
1%
12
1Q
1R
b0 T
1D
1B
b10 P
1W
1+
#332000
0%
02
0(
b10001000 '
1-
b1001 "
b1010010 #
0;
06
05
14
0<
#334000
1%
12
b10 O
0Q
b1 T
0D
0W
b110 P
0L
b11 K
0+
0A
1@
#336000
0%
02
b101101 '
0-
10
b1010011 #
1;
19
16
04
#338000
1%
12
b101101 S
0R
b0 T
b110 O
0B
b0 P
b1 K
0?
1W
1+
#340000
0%
02
1(
b101110 '
1-
0/
00
b0 "
b101110 1
1/
b1010100 #
0;
1:
1<
b1 P
1N
1C
#342000
1%
12
b101110 V
b1 O
b101110 S
0N
b11 P
b0 K
1L
0C
1A
0@
0W
0+
#344000
0%
02
0(
b11100 '
0-
b1 "
b1010101 #
0:
17
06
0<
#346000
1%
12
b1 T
b11 O
0L
b10 K
1L
1?
#348000
0%
02
1(
b101001 '
b10 "
b1010110 #
1;
09
07
16
1<
#350000
1%
12
1Q
b10 T
1D
1W
1+
#352000
0%
02
0(
b10000110 '
1-
b11 "
b1010111 #
0;
1:
19
08
06
14
0<
#354000
1%
12
b11 T
#356000
0%
02
b111101 '
0-
1-
b100 "
b1011000 #
1;
0:
18
17
16
04
#358000
1%
12
b100 T
#360000
0%
02
b1110000 '
0-
1-
b101 "
b1011001 #
0;
09
08
15
#362000
1%
12
0Q
b101 T
0D
0W
0+
#364000
0%
02
1(
b10111010 '
0-
b110 "
b1011010 #
1:
18
05
14
1<
#366000
1%
12
1Q
b110 T
1D
1W
1+
#368000
0%
02
0(
b11111010 '
1-
b111 "
b1011011 #
15
0<
#370000
1%
12
0Q
b111 T
0D
0W
0+
#372000
0%
02
1(
b11010 '
0-
b1000 "
b1011100 #
06
05
04
1<
#374000
1%
12
1R
b0 T
1B
b10 P
#376000
0%
02
b110111 '
b1001 "
b1011101 #
1;
19
08
16
#378000
1%
12
b10 O
b1 T
b110 P
0L
b11 K
0A
1@
#380000
0%
02
0(
b11000000 '
10
b1011110 #
0;
0:
09
07
06
15
14
0<
#382000
1%
12
b11000000 S
0R
b0 T
b110 O
0B
b0 P
b1 K
0?
1W
1+
#384000
0%
02
b10110110 '
1-
0/
00
b0 "
b1011111 #
0.
1:
19
17
16
05
#386000
1%
12
b0 O
b10110110 S
0M
0,
#388000
0%
02
1(
b11011100 '
b11011100 1
1/
b1100000 #
1.
0:
18
06
15
1<
b1 P
1N
1C
#390000
1%
12
b11011100 V
b11011100 S
b1 O
0N
b11 P
1M
b0 K
1L
0C
1,
1A
0@
0W
0+
#392000
0%
02
0(
b1111000 '
0-
b1 "
b1100001 #
09
16
04
0<
#394000
1%
12
b11 O
b1 T
1U
1E
0L
b10 K
1L
1?
#396000
0%
02
b11011011 '
b10 "
b1100010 #
1;
1:
06
14
#398000
1%
12
b10 T
#400000
0%
02
1(
b1111001 '
b11 "
b1100011 #
0:
16
04
1<
#402000
1%
12
1Q
b11 T
1D
1W
1+
#404000
0%
02
0(
b1100001 '
1-
b100 "
b1100100 #
08
07
0<
#406000
1%
12
b100 T
#408000
0%
02
1(
b10100001 '
0-
1-
b101 "
b1100101 #
05
14
1<
#410000
1%
12
b101 T
#412000
0%
02
0(
b1010000 '
0)
1*
0-
1-
b110 "
b1100110 #
0;
17
06
15
04
1>
0<
0=
#414000
1%
12
0U
0Q
b110 T
0E
0D
0W
0+
#416000
0%
02
1(
b110101 '
0-
b111 "
b1100111 #
1;
19
16
05
1<
#418000
1%
12
1Q
b111 T
1D
1W
1+
#420000
0%
02
b11000001 '
1-
b1000 "
b1101000 #
09
07
06
15
14
#422000
1%
12
1R
b0 T
1B
b110 P
#424000
0%
02
b10011000 '
0-
1-
b1001 "
b1101001 #
0;
18
17
05
#426000
1%
12
b110 O
0Q
b1 T
0D
0W
b1 P
1N
0L
b1 K
0+
1C
0A
1@
0?
1W
1+
#428000
0%
02
b1110011 '
0-
1-
0/
b0 "
b1110011 1
1/
b1101010 #
1;
1:
08
16
15
04
#430000
1%
12
b1110011 V
b1110011 S
0R
b0 T
b1 O
0B
0N
b11 P
b0 K
1L
0C
1A
0@
0W
0+
#432000
0%
02
0(
b10001010 '
0-
b1 "
b1101011 #
0;
18
07
06
05
14
0<
#434000
1%
12
b11 O
1Q
b1 T
1D
0L
b10 K
1L
1?
1W
1+
#436000
0%
02
b10101000 '
1-
b10 "
b1101100 #
0:
16
#438000
1%
12
b10 T
#440000
0%
02
1(
b10100001 '
0-
1-
b11 "
b1101101 #
1;
08
1<
#442000
1%
12
0Q
b11 T
0D
0W
0+
#444000
0%
02
0(
b11100110 '
0-
b100 "
b1101110 #
0;
1:
19
15
0<
#446000
1%
12
b100 T
#448000
0%
02
1(
b101010 '
b101 "
b1101111 #
09
18
05
04
1<
#450000
1%
12
1Q
b101 T
1D
1W
1+
#452000
0%
02
0(
b10001101 '
1-
b110 "
b1110000 #
1;
0:
19
06
14
0<
#454000
1%
12
b110 T
#456000
0%
02
b111000 '
0-
1-
b111 "
b1110001 #
0;
09
17
16
04
#458000
1%
12
b111 T
#460000
0%
02
1(
b11001000 '
0-
1-
b1000 "
b1110010 #
07
06
15
14
1<
#462000
1%
12
0Q
1R
b0 T
0D
1B
b110 P
0W
0+
#464000
0%
02
0(
b10011 '
0-
b1001 "
b1110011 #
1;
1:
08
17
05
04
0<
#466000
1%
12
b110 O
1Q
b1 T
1D
1W
b0 P
0L
b1 K
1+
0A
1@
0?
#468000
0%
02
1(
b11000111 '
1-
0/
b0 "
b11000111 1
1/
b1110100 #
19
07
15
14
1<
b1 P
1N
1C
#470000
1%
12
b11000111 V
b11000111 S
0R
b0 T
b1 O
0B
0N
b11 P
b0 K
1L
0C
1A
0@
0W
0+
#472000
0%
02
0(
b10111010 '
0-
b1 "
b1110101 #
0;
09
18
17
16
05
0<
#474000
1%
12
b11 O
b1 T
0L
b10 K
1L
1?
1W
1+
#476000
0%
02
b10111001 '
1-
b10 "
b1110110 #
1;
0:
#478000
1%
12
b10 T
#480000
0%
02
b10110100 '
0-
1-
b11 "
b1110111 #
0;
19
08
#482000
1%
12
b11 T
#484000
0%
02
1(
b10000110 '
0-
1-
b100 "
b1111000 #
1:
07
06
1<
#486000
1%
12
0Q
b100 T
0D
0W
0+
#488000
0%
02
0(
b11110010 '
0-
b101 "
b1111001 #
09
17
16
15
0<
#490000
1%
12
b101 T
#492000
0%
02
b10111101 '
b110 "
b1111010 #
1;
0:
19
18
05
#494000
1%
12
b110 T
#496000
0%
02
b11100100 '
b111 "
b1111011 #
0;
08
07
15
#498000
1%
12
1Q
b111 T
1D
1W
1+
#500000
0%
02
b10101001 '
1-
b1000 "
b1111100 #
1;
09
18
05
#502000
1%
12
1R
b0 T
1B
b110 P
#504000
0%
02
1(
b10001110 '
0-
1-
b1001 "
b1111101 #
0;
1:
19
06
1<
#506000
1%
12
b110 O
b1 T
b1 P
1N
0L
b1 K
1C
0A
1@
0?
#508000
0%
02
b1011 '
0-
1-
0/
b0 "
b1011 1
1/
b1111110 #
1;
09
04
#510000
1%
12
b1011 V
b1011 S
0R
b0 T
b1 O
0B
0N
b11 P
b0 K
1L
0C
1A
0@
0W
0+
#512000
0%
02
b11001001 '
0*
0-
b1 "
b1111111 #
0:
15
14
0>
#514000
1%
12
b11 O
b1 T
1U
1E
0L
b10 K
1L
1?
1W
1+
#516000
0%
02
0(
b1110101 '
1-
b10 "
b10000000 #
19
08
17
16
04
0<
#518000
1%
12
b10 T
#520000
0%
02
1(
b1101011 '
0-
1-
b11 "
b10000001 #
1:
09
18
07
1<
#522000
1%
12
0Q
b11 T
0D
0W
0+
#524000
0%
02
0(
b10101110 '
0-
b100 "
b10000010 #
0;
19
05
14
0<
#526000
1%
12
1Q
b100 T
1D
1W
1+
#528000
0%
02
1(
b10010010 '
1-
b101 "
b10000011 #
09
08
17
06
1<
#530000
1%
12
0Q
b101 T
0D
0W
0+
#532000
0%
02
0(
b101101 '
0-
b110 "
b10000100 #
1;
0:
19
18
07
16
04
0<
#534000
1%
12
b110 T
#536000
0%
02
1(
b11000010 '
b111 "
b10000101 #
0;
1:
09
08
06
15
14
1<
#538000
1%
12
b111 T
#540000
0%
02
0(
b1101 '
b1000 "
b10000110 #
1;
0:
19
18
05
04
0<
#542000
1%
12
1R
b0 T
1B
b110 P
#544000
0%
02
b11000 '
b1001 "
b10000111 #
0;
09
17
#546000
1%
12
b110 O
1Q
b1 T
1D
1W
b0 P
0L
b1 K
1+
0A
1@
0?
#548000
0%
02
1(
b10000110 '
1-
0/
b0 "
b10000110 1
1/
b10001000 #
1:
19
08
07
14
1<
b1 P
1N
1C
#550000
1%
12
b10000110 V
b10000110 S
0R
b0 T
b1 O
0B
0N
b11 P
b0 K
1L
0C
1A
0@
0W
0+
#552000
0%
02
b111011 '
0-
b1 "
b10001001 #
1;
09
18
17
16
04
#554000
1%
12
b11 O
0Q
b1 T
0D
0L
b10 K
1L
1?
#556000
0%
02
0(
b1010011 '
b10 "
b10001010 #
08
06
15
0<
#558000
1%
12
1Q
b10 T
1D
1W
1+
#560000
0%
02
b1011011 '
1-
b11 "
b10001011 #
18
#562000
1%
12
b11 T
#564000
0%
02
b100 '
0-
1-
b100 "
b10001100 #
0;
0:
19
08
07
05
#566000
1%
12
0Q
b100 T
0D
0W
0+
#568000
0%
02
1(
b11011000 '
0-
b101 "
b10001101 #
09
18
17
15
14
1<
#570000
1%
12
b101 T
#572000
0%
02
0(
b10111000 '
b110 "
b10001110 #
16
05
0<
#574000
1%
12
b110 T
#576000
0%
02
1(
b11100101 '
b111 "
b10001111 #
1;
19
08
07
15
1<
#578000
1%
12
b111 T
#580000
0%
02
b101011 '
b1000 "
b10010000 #
1:
09
18
05
04
#582000
1%
12
1Q
1R
b0 T
1D
1B
b110 P
1W
1+
#584000
0%
02
b11001000 '
1-
b1001 "
b10010001 #
0;
0:
06
15
14
#586000
1%
12
b110 O
0Q
b1 T
0D
0W
b1 P
1N
0L
b1 K
0+
1C
0A
1@
0?
1W
1+
#588000
0%
02
b10100001 '
0-
1-
0/
b0 "
b10100001 1
1/
b10010010 #
1;
08
16
05
#590000
1%
12
b10100001 V
b10100001 S
0R
b0 T
b1 O
0B
0N
b11 P
b0 K
1L
0C
1A
0@
0W
0+
#592000
0%
02
b100 '
0-
b1 "
b10010011 #
0;
19
06
04
#594000
1%
12
b11 O
1Q
b1 T
1D
0L
b10 K
1L
1?
1W
1+
#596000
0%
02
0(
b10010110 '
1-
b10 "
b10010100 #
1:
17
14
0<
#598000
1%
12
0Q
b10 T
0D
0W
0+
#600000
0%
02
b10010 '
0-
b11 "
b10010101 #
09
04
#602000
1%
12
b11 T
#604000
0%
02
b10110001 '
b100 "
b10010110 #
1;
0:
16
14
#606000
1%
12
b100 T
#608000
0%
02
1(
b11101101 '
b101 "
b10010111 #
0(
19
18
07
15
#610000
1%
12
b101 T
#612000
0%
02
#614000
1%
12
1Q
b110 T
1D
1W
1+
#616000
0%
02
#618000
1%
12
0Q
b111 T
0D
0W
0+
#620000
0%
02
#622000
1%
12
1Q
1R
b0 T
1D
1B
b110 P
1W
1+
#624000
0%
02
#626000
1%
12
b110 O
b1 T
b0 P
0L
b1 K
0A
1@
0?
#628000
0%
02
#630000
1%
12
b11101101 S
0R
b0 T
b0 O
0B
0M
0,
