UART/UART.vcd
$date
	Mon Jan 19 18:23:10 2026
$end
$version
	QuestaSim Version 2021.1
$end
$timescale
	1fs
$end

$scope module UART_tb $end
$var parameter 32 ! PRESCALE $end
$var parameter 0 " CLOCK_FREQ_TX $end
$var parameter 0 # CLOCK_PERIOD_TX $end
$var parameter 0 $ CLOCK_PERIOD $end
$var reg 4 % count [3:0] $end
$var integer 32 & correct $end
$var integer 32 ' error $end
$var reg 1 ( clk_tb $end
$var reg 1 ) rst_n_tb $end
$var reg 1 * clk_RX $end
$var reg 8 + P_DATA_tb [7:0] $end
$var reg 6 , Prescale_tb [5:0] $end
$var reg 1 - Data_Valid_tb $end
$var reg 1 . Par_En_tb $end
$var reg 1 / Par_Typ_tb $end
$var wire 1 0 TX_OUT_tb $end
$var wire 1 1 Busy_tb $end
$var wire 1 2 RX_OUT_V_tb $end
$var wire 1 3 PAR_Err_tb $end
$var wire 1 4 STP_Err_tb $end
$var wire 1 5 RX_OUT_P_tb [7] $end
$var wire 1 6 RX_OUT_P_tb [6] $end
$var wire 1 7 RX_OUT_P_tb [5] $end
$var wire 1 8 RX_OUT_P_tb [4] $end
$var wire 1 9 RX_OUT_P_tb [3] $end
$var wire 1 : RX_OUT_P_tb [2] $end
$var wire 1 ; RX_OUT_P_tb [1] $end
$var wire 1 < RX_OUT_P_tb [0] $end
$var reg 1 = TX_OUT_expec $end
$var reg 1 > Busy_expec $end
$var reg 1 ? Busy_expec_temp $end
$var reg 1 @ done $end
$var reg 8 A P_DATA_reg [7:0] $end

$scope task initialize $end
$upscope $end

$scope task reset $end
$upscope $end

$scope task check_out $end
$upscope $end

$scope module DUT $end
$var wire 1 B TX_CLK $end
$var wire 1 C RX_CLK $end
$var wire 1 D rst_n $end
$var wire 1 E Par_En $end
$var wire 1 F Par_Typ $end
$var wire 1 G Prescale [5] $end
$var wire 1 H Prescale [4] $end
$var wire 1 I Prescale [3] $end
$var wire 1 J Prescale [2] $end
$var wire 1 K Prescale [1] $end
$var wire 1 L Prescale [0] $end
$var wire 1 0 RX_IN_S $end
$var wire 1 5 RX_OUT_P [7] $end
$var wire 1 6 RX_OUT_P [6] $end
$var wire 1 7 RX_OUT_P [5] $end
$var wire 1 8 RX_OUT_P [4] $end
$var wire 1 9 RX_OUT_P [3] $end
$var wire 1 : RX_OUT_P [2] $end
$var wire 1 ; RX_OUT_P [1] $end
$var wire 1 < RX_OUT_P [0] $end
$var wire 1 2 RX_OUT_V $end
$var wire 1 3 PAR_Err $end
$var wire 1 4 STP_Err $end
$var wire 1 M TX_IN_P [7] $end
$var wire 1 N TX_IN_P [6] $end
$var wire 1 O TX_IN_P [5] $end
$var wire 1 P TX_IN_P [4] $end
$var wire 1 Q TX_IN_P [3] $end
$var wire 1 R TX_IN_P [2] $end
$var wire 1 S TX_IN_P [1] $end
$var wire 1 T TX_IN_P [0] $end
$var wire 1 U TX_IN_V $end
$var wire 1 0 TX_OUT_S $end
$var wire 1 1 TX_OUT_V $end

$scope module TX_U0 $end
$var wire 1 B clk $end
$var wire 1 D rst_n $end
$var wire 1 M P_DATA [7] $end
$var wire 1 N P_DATA [6] $end
$var wire 1 O P_DATA [5] $end
$var wire 1 P P_DATA [4] $end
$var wire 1 Q P_DATA [3] $end
$var wire 1 R P_DATA [2] $end
$var wire 1 S P_DATA [1] $end
$var wire 1 T P_DATA [0] $end
$var wire 1 U Data_Valid $end
$var wire 1 E Par_En $end
$var wire 1 F Par_Typ $end
$var wire 1 0 TX_OUT $end
$var wire 1 1 Busy $end
$var wire 1 V mux_sel [1] $end
$var wire 1 W mux_sel [0] $end
$var wire 1 X ser_en $end
$var wire 1 Y ser_done $end
$var wire 1 Z capture $end
$var wire 1 [ s_data $end
$var wire 1 \ parity $end

$scope module FSM_U0 $end
$var parameter 3 ] IDLE $end
$var parameter 3 ^ START_BIT $end
$var parameter 3 _ DATA_BITS $end
$var parameter 3 ` PARITY_BIT $end
$var parameter 3 a STOP_BIT $end
$var wire 1 B clk $end
$var wire 1 D rst_n $end
$var wire 1 U Data_Valid $end
$var wire 1 Y Ser_Done $end
$var wire 1 E Par_En $end
$var reg 2 b MUX_SEL [1:0] $end
$var reg 1 c Ser_En $end
$var reg 1 d Busy $end
$var reg 1 e Capture $end
$var reg 3 f current_state [2:0] $end
$var reg 3 g next_state [2:0] $end
$upscope $end

$scope module Serializer_U1 $end
$var wire 1 B clk $end
$var wire 1 D rst_n $end
$var wire 1 M P_DATA [7] $end
$var wire 1 N P_DATA [6] $end
$var wire 1 O P_DATA [5] $end
$var wire 1 P P_DATA [4] $end
$var wire 1 Q P_DATA [3] $end
$var wire 1 R P_DATA [2] $end
$var wire 1 S P_DATA [1] $end
$var wire 1 T P_DATA [0] $end
$var wire 1 X Ser_En $end
$var reg 1 h Ser_Data $end
$var reg 1 i Ser_Done $end
$var reg 8 j data_reg [7:0] $end
$var reg 3 k bit_count [2:0] $end
$upscope $end

$scope module Parity_Calc_U2 $end
$var wire 1 B clk $end
$var wire 1 D rst_n $end
$var wire 1 M P_DATA [7] $end
$var wire 1 N P_DATA [6] $end
$var wire 1 O P_DATA [5] $end
$var wire 1 P P_DATA [4] $end
$var wire 1 Q P_DATA [3] $end
$var wire 1 R P_DATA [2] $end
$var wire 1 S P_DATA [1] $end
$var wire 1 T P_DATA [0] $end
$var wire 1 Z Capture $end
$var wire 1 F Par_Type $end
$var reg 1 l parity_out $end
$var reg 8 m data_reg [7:0] $end
$upscope $end

$scope module MUX4x1_U3 $end
$var wire 1 [ Ser_Data $end
$var wire 1 \ Par_Bit $end
$var wire 1 V SEL [1] $end
$var wire 1 W SEL [0] $end
$var reg 1 n OUT $end
$upscope $end
$upscope $end

$scope module RX_U1 $end
$var wire 1 C clk $end
$var wire 1 D rst_n $end
$var wire 1 0 RX_IN $end
$var wire 1 G Prescale [5] $end
$var wire 1 H Prescale [4] $end
$var wire 1 I Prescale [3] $end
$var wire 1 J Prescale [2] $end
$var wire 1 K Prescale [1] $end
$var wire 1 L Prescale [0] $end
$var wire 1 E Par_En $end
$var wire 1 F Par_Typ $end
$var wire 1 5 P_DATA [7] $end
$var wire 1 6 P_DATA [6] $end
$var wire 1 7 P_DATA [5] $end
$var wire 1 8 P_DATA [4] $end
$var wire 1 9 P_DATA [3] $end
$var wire 1 : P_DATA [2] $end
$var wire 1 ; P_DATA [1] $end
$var wire 1 < P_DATA [0] $end
$var wire 1 2 Data_Valid $end
$var wire 1 3 PAR_Err $end
$var wire 1 4 STP_Err $end
$var wire 1 o edge_cnt [4] $end
$var wire 1 p edge_cnt [3] $end
$var wire 1 q edge_cnt [2] $end
$var wire 1 r edge_cnt [1] $end
$var wire 1 s edge_cnt [0] $end
$var wire 1 t deser_en $end
$var wire 1 u dat_samp_en $end
$var wire 1 v enable $end
$var wire 1 w par_chk_en $end
$var wire 1 x strt_chk_en $end
$var wire 1 y stp_chk_en $end
$var wire 1 z strt_glitch $end
$var wire 1 { sampled_bit $end
$var wire 1 | bit_cnt [3] $end
$var wire 1 } bit_cnt [2] $end
$var wire 1 ~ bit_cnt [1] $end
$var wire 1 !! bit_cnt [0] $end

$scope module FSM_U1 $end
$var parameter 3 "! IDLE $end
$var parameter 3 #! START_BIT $end
$var parameter 3 $! DATA_BITS $end
$var parameter 3 %! PARITY_BIT $end
$var parameter 3 &! STOP_BIT $end
$var wire 1 C clk $end
$var wire 1 D rst_n $end
$var wire 1 0 RX_IN $end
$var wire 1 E Par_En $end
$var wire 1 G Prescale [5] $end
$var wire 1 H Prescale [4] $end
$var wire 1 I Prescale [3] $end
$var wire 1 J Prescale [2] $end
$var wire 1 K Prescale [1] $end
$var wire 1 L Prescale [0] $end
$var wire 1 o edge_cnt [4] $end
$var wire 1 p edge_cnt [3] $end
$var wire 1 q edge_cnt [2] $end
$var wire 1 r edge_cnt [1] $end
$var wire 1 s edge_cnt [0] $end
$var wire 1 | bit_cnt [3] $end
$var wire 1 } bit_cnt [2] $end
$var wire 1 ~ bit_cnt [1] $end
$var wire 1 !! bit_cnt [0] $end
$var wire 1 3 par_err $end
$var wire 1 z strt_glitch $end
$var wire 1 4 stp_err $end
$var reg 1 '! Data_Valid $end
$var reg 1 (! deser_en $end
$var reg 1 )! dat_samp_en $end
$var reg 1 *! enable $end
$var reg 1 +! par_chk_en $end
$var reg 1 ,! strt_chk_en $end
$var reg 1 -! stp_chk_en $end
$var reg 3 .! current_state [2:0] $end
$var reg 3 /! next_state [2:0] $end
$var reg 4 0! bit_count [3:0] $end
$var reg 1 1! parity_error_flag $end
$var reg 1 2! stop_error_flag $end
$upscope $end

$scope module EBC_U1 $end
$var wire 1 C clk $end
$var wire 1 D rst_n $end
$var wire 1 v enable $end
$var wire 1 G Prescale [5] $end
$var wire 1 H Prescale [4] $end
$var wire 1 I Prescale [3] $end
$var wire 1 J Prescale [2] $end
$var wire 1 K Prescale [1] $end
$var wire 1 L Prescale [0] $end
$var reg 5 3! edge_cnt [4:0] $end
$var reg 4 4! bit_cnt [3:0] $end
$var reg 1 5! first_edge $end
$var reg 1 6! enable_reg $end
$upscope $end

$scope module DS_U2 $end
$var wire 1 C clk $end
$var wire 1 D rst_n $end
$var wire 1 0 RX_IN $end
$var wire 1 u dat_samp_en $end
$var wire 1 G Prescale [5] $end
$var wire 1 H Prescale [4] $end
$var wire 1 I Prescale [3] $end
$var wire 1 J Prescale [2] $end
$var wire 1 K Prescale [1] $end
$var wire 1 L Prescale [0] $end
$var wire 1 o edge_cnt [4] $end
$var wire 1 p edge_cnt [3] $end
$var wire 1 q edge_cnt [2] $end
$var wire 1 r edge_cnt [1] $end
$var wire 1 s edge_cnt [0] $end
$var reg 1 7! sampled_bit $end
$var reg 2 8! data_temp [1:0] $end
$upscope $end

$scope module PC_U3 $end
$var wire 1 C clk $end
$var wire 1 D rst_n $end
$var wire 1 w par_chk_en $end
$var wire 1 F Par_Typ $end
$var wire 1 5 P_DATA [7] $end
$var wire 1 6 P_DATA [6] $end
$var wire 1 7 P_DATA [5] $end
$var wire 1 8 P_DATA [4] $end
$var wire 1 9 P_DATA [3] $end
$var wire 1 : P_DATA [2] $end
$var wire 1 ; P_DATA [1] $end
$var wire 1 < P_DATA [0] $end
$var wire 1 { sampled_bit $end
$var reg 1 9! par_err $end
$var reg 1 :! parity_bit $end
$upscope $end

$scope module SC_U4 $end
$var wire 1 C clk $end
$var wire 1 D rst_n $end
$var wire 1 x strt_chk_en $end
$var wire 1 { sampled_bit $end
$var reg 1 ;! strt_glitch $end
$upscope $end

$scope module STPC_U5 $end
$var wire 1 C clk $end
$var wire 1 D rst_n $end
$var wire 1 y stp_chk_en $end
$var wire 1 { sampled_bit $end
$var reg 1 <! stp_err $end
$upscope $end

$scope module DESER_U6 $end
$var wire 1 C clk $end
$var wire 1 D rst_n $end
$var wire 1 t deser_en $end
$var wire 1 { sampled_bit $end
$var reg 8 =! P_DATA [7:0] $end
$upscope $end
$upscope $end
$upscope $end
$upscope $end
$enddefinitions $end
#0
$dumpvars
b0 %
0(
1)
0*
b11111111 +
b1000 ,
0-
0.
0/
1=
0>
0?
0@
bx A
bx b
xc
xd
0e
bx f
b0 g
xh
xi
bx j
bx k
xl
bx m
xn
0'!
0(!
1)!
1*!
0+!
0,!
0-!
bx .!
b0 /!
b0 0!
x1!
x2!
bx 3!
bx 4!
x5!
x6!
x7!
bx 8!
x9!
x:!
x;!
x<!
bx =!
b1000 !
b0 ]
b1 ^
b11 _
b10 `
b110 a
b0 "!
b1 #!
b11 $!
b10 %!
b110 &!
r115.2 "
r8680.555555555555 #
r1085.069444444444 $
b0 &
b0 '
x0
x1
02
x3
x4
x<
x;
x:
x9
x8
x7
x6
x5
xW
xV
xX
xY
0Z
x[
x\
xs
xr
xq
xp
xo
0t
1u
1v
0w
0x
0y
xz
x{
x!!
x~
x}
x|
0U
1T
1S
1R
1Q
1P
1O
1N
1M
0L
0K
0J
1I
0H
0G
0F
0E
1D
0C
0B
$end
#542534722
1*
1C
b0 .!
16!
09!
0;!
0<!
03
04
0z
0)!
0*!
0u
0v
#1085069444
0*
0C
#1627604166
1*
1C
b11 8!
17!
06!
b0 3!
b0 4!
01!
02!
1{
0!!
0~
0}
0|
0s
0r
0q
0p
0o
1)!
1*!
0)!
0*!
#2170138888
0*
0C
#2712673610
1*
1C
15!
#3255208332
0*
0C
#3797743054
1*
1C
#4340277776
0*
0C
#4340277778
1(
1B
b0 f
b11111111 j
0i
b0 k
0Y
0c
1d
b1 b
0d
0X
01
1W
0V
1n
10
1)!
1*!
0)!
0*!
#4882812498
1*
1C
#5425347220
0*
0C
#5967881942
1*
1C
#6510416664
0*
0C
#7052951386
1*
1C
#7595486108
0*
0C
#8138020830
1*
1C
#8680555552
0*
0C
#8680555556
0(
0B
0)
0D
16!
b0 =!
0h
b0 j
0l
b0 m
0<
0;
0:
09
08
07
06
05
0[
0\
0:!
#9223090274
1*
1C
#9765624996
0*
0C
#10308159718
1*
1C
#10850694440
0*
0C
#11393229162
1*
1C
#11935763884
0*
0C
#12478298606
1*
1C
#13020833328
0*
0C
#13020833334
1(
1B
#13563368050
1*
1C
#14105902772
0*
0C
#14648437494
1*
1C
#15190972216
0*
0C
#15733506938
1*
1C
#16276041660
0*
0C
#16818576382
1*
1C
#17361111104
0*
0C
#17361111112
0(
0B
1)
b1 &
1D
#17903645826
1*
1C
06!
#18446180548
0*
0C
#18988715270
1*
1C
#19531249992
0*
0C
#20073784714
1*
1C
#20616319436
0*
0C
#21158854158
1*
1C
#21701388880
0*
0C
#21701388890
1(
1B
b11111111 j
#22243923602
1*
1C
#22786458324
0*
0C
#23328993046
1*
1C
#23871527768
0*
0C
#24414062490
1*
1C
#24956597212
0*
0C
#25499131934
1*
1C
#26041666656
0*
0C
#26041666668
0(
0B
b10000001 +
1.
1/
b10 &
0S
0R
0Q
0P
0O
0N
1E
1F
1:!
1)!
1*!
0)!
0*!
#26584201378
1*
1C
#27126736100
0*
0C
#27669270822
1*
1C
#28211805544
0*
0C
#28754340266
1*
1C
#29296874988
0*
0C
#29839409710
1*
1C
#30381944432
0*
0C
#30381944446
1(
1B
1l
b10000001 j
1\
#30924479154
1*
1C
#31467013876
0*
0C
#32009548598
1*
1C
#32552083320
0*
0C
#33094618042
1*
1C
#33637152764
0*
0C
#34179687486
1*
1C
#34722222208
0*
0C
#34722222224
0(
0B
1-
b1100011 +
b1100011 A
1?
b11 &
1>
1S
1O
1N
0M
1U
b1 g
1e
1Z
#35264756930
1*
1C
#35807291652
0*
0C
#36349826374
1*
1C
#36892361096
0*
0C
#37434895818
1*
1C
#37977430540
0*
0C
#38519965262
1*
1C
#39062499984
0*
0C
#39062500002
1(
1B
b1 f
b1100011 j
b1100011 m
0e
b11 g
1d
b0 b
1c
0Z
11
1X
0W
0n
00
1)!
1*!
b1 /!
1u
1v
#39605034706
1*
1C
16!
05!
b1 .!
#40147569428
0*
0C
#40690104150
1*
1C
b1 3!
1s
#41232638872
0*
0C
#41775173594
1*
1C
b10 3!
0s
1r
#42317708316
0*
0C
#42860243038
1*
1C
b10 8!
b11 3!
1s
#43402777760
0*
0C
#43402777780
0(
0B
b10001101 +
0=
b1 %
b100 &
0S
1R
1Q
0O
0N
1M
#43945312482
1*
1C
b100 3!
b0 8!
0s
0r
1q
#44487847204
0*
0C
#45030381926
1*
1C
07!
b101 3!
0{
1s
1,!
1x
#45572916648
0*
0C
#46115451370
1*
1C
b110 3!
0s
1r
0,!
0x
#46657986092
0*
0C
#47200520814
1*
1C
b111 3!
1s
#47743055536
0*
0C
#47743055558
1(
1B
1h
b1 k
b11 f
1[
0c
b10 b
1c
1V
1n
10
#48285590258
1*
1C
b0 3!
b1 4!
1!!
0s
0r
0q
b11 /!
#48828124980
0*
0C
#49370659702
1*
1C
b11 .!
b1 3!
1s
1(!
b1 0!
1t
#49913194424
0*
0C
#50455729146
1*
1C
b10 3!
0s
1r
0(!
0t
#50998263868
0*
0C
#51540798590
1*
1C
b1 8!
b11 3!
1s
#52083333312
0*
0C
#52083333336
0(
0B
b10010 +
1=
b10 %
b101 &
0T
1S
0R
0Q
1P
0M
#52625868034
1*
1C
b100 3!
b11 8!
0s
0r
1q
#53168402756
0*
0C
#53710937478
1*
1C
17!
b101 3!
1{
1s
#54253472200
0*
0C
#54796006922
1*
1C
b110 3!
0s
1r
#55338541644
0*
0C
#55881076366
1*
1C
b111 3!
1s
#56423611088
0*
0C
#56423611114
1(
1B
b10 k
#56966145810
1*
1C
b0 3!
b10 4!
0!!
1~
0s
0r
0q
1(!
b10 0!
1t
#57508680532
0*
0C
#58051215254
1*
1C
b10000000 =!
b1 3!
1s
15
0(!
0:!
0t
#58593749976
0*
0C
#59136284698
1*
1C
b10 3!
0s
1r
#59678819420
0*
0C
#60221354142
1*
1C
b11 3!
1s
#60763888864
0*
0C
#60763888892
0(
0B
b1101 +
0=
1=
b11 %
b110 &
1T
0S
1R
1Q
0P
#61306423586
1*
1C
b100 3!
0s
0r
1q
#61848958308
0*
0C
#62391493030
1*
1C
b101 3!
1s
#62934027752
0*
0C
#63476562474
1*
1C
b110 3!
0s
1r
#64019097196
0*
0C
#64561631918
1*
1C
b111 3!
1s
#65104166640
0*
0C
#65104166670
1(
1B
0h
b11 k
0[
0n
00
#65646701362
1*
1C
b0 3!
b11 4!
1!!
0s
0r
0q
1(!
b11 0!
1t
#66189236084
0*
0C
#66731770806
1*
1C
b11000000 =!
b1 3!
1s
16
0(!
1:!
0t
#67274305528
0*
0C
#67816840250
1*
1C
b10 3!
0s
1r
#68359374972
0*
0C
#68901909694
1*
1C
b10 8!
b11 3!
1s
#69444444416
0*
0C
#69444444448
0(
0B
0-
b111101 +
0=
b100 %
b111 &
1P
1O
0U
#69986979138
1*
1C
b100 3!
b0 8!
0s
0r
1q
#70529513860
0*
0C
#71072048582
1*
1C
07!
b101 3!
0{
1s
#71614583304
0*
0C
#72157118026
1*
1C
b110 3!
0s
1r
#72699652748
0*
0C
#73242187470
1*
1C
b111 3!
1s
#73784722192
0*
0C
#73784722226
1(
1B
b100 k
#74327256914
1*
1C
b0 3!
b100 4!
0!!
0~
1}
0s
0r
0q
1(!
b100 0!
1t
#74869791636
0*
0C
#75412326358
1*
1C
b1100000 =!
b1 3!
1s
17
05
0(!
0t
#75954861080
0*
0C
#76497395802
1*
1C
b10 3!
0s
1r
#77039930524
0*
0C
#77582465246
1*
1C
b11 3!
1s
#78124999968
0*
0C
#78125000004
0(
0B
1-
b10001100 +
b101 %
b1000 &
0T
0P
0O
1M
1U
#78667534690
1*
1C
b100 3!
0s
0r
1q
#79210069412
0*
0C
#79752604134
1*
1C
b101 3!
1s
#80295138856
0*
0C
#80837673578
1*
1C
b110 3!
0s
1r
#81380208300
0*
0C
#81922743022
1*
1C
b111 3!
1s
#82465277744
0*
0C
#82465277782
1(
1B
b101 k
#83007812466
1*
1C
b0 3!
b101 4!
1!!
0s
0r
0q
1(!
b101 0!
1t
#83550347188
0*
0C
#84092881910
1*
1C
b110000 =!
b1 3!
1s
18
06
0(!
0t
#84635416632
0*
0C
#85177951354
1*
1C
b10 3!
0s
1r
#85720486076
0*
0C
#86263020798
1*
1C
b11 3!
1s
#86805555520
0*
0C
#86805555560
0(
0B
b11000110 +
b110 %
b1001 &
1S
0Q
1N
#87348090242
1*
1C
b100 3!
0s
0r
1q
#87890624964
0*
0C
#88433159686
1*
1C
b101 3!
1s
#88975694408
0*
0C
#89518229130
1*
1C
b110 3!
0s
1r
#90060763852
0*
0C
#90603298574
1*
1C
b111 3!
1s
#91145833296
0*
0C
#91145833338
1(
1B
1h
b110 k
1[
1n
10
#91688368018
1*
1C
b0 3!
b110 4!
0!!
1~
0s
0r
0q
1(!
b110 0!
1t
#92230902740
0*
0C
#92773437462
1*
1C
b11000 =!
b1 3!
1s
19
07
0(!
0t
#93315972184
0*
0C
#93858506906
1*
1C
b10 3!
0s
1r
#94401041628
0*
0C
#94943576350
1*
1C
b1 8!
b11 3!
1s
#95486111072
0*
0C
#95486111116
0(
0B
b10101010 +
1=
b111 %
b1010 &
0R
1Q
1O
0N
#96028645794
1*
1C
b100 3!
b11 8!
0s
0r
1q
#96571180516
0*
0C
#97113715238
1*
1C
17!
b101 3!
1{
1s
#97656249960
0*
0C
#98198784682
1*
1C
b110 3!
0s
1r
#98741319404
0*
0C
#99283854126
1*
1C
b111 3!
1s
#99826388848
0*
0C
#99826388894
1(
1B
b111 k
#100368923570
1*
1C
b0 3!
b111 4!
1!!
0s
0r
0q
1(!
b111 0!
1t
#100911458292
0*
0C
#101453993014
1*
1C
b10001100 =!
b1 3!
1s
1:
08
15
0(!
0:!
0t
#101996527736
0*
0C
#102539062458
1*
1C
b10 3!
0s
1r
#103081597180
0*
0C
#103624131902
1*
1C
b11 3!
1s
#104166666624
0*
0C
#104166666672
0(
0B
b1110111 +
0=
1=
b1000 %
b1011 &
1T
1R
0Q
1P
1N
0M
#104709201346
1*
1C
b100 3!
0s
0r
1q
#105251736068
0*
0C
#105794270790
1*
1C
b101 3!
1s
#106336805512
0*
0C
#106879340234
1*
1C
b110 3!
0s
1r
#107421874956
0*
0C
#107964409678
1*
1C
b111 3!
1s
#108506944400
0*
0C
#108506944450
1(
1B
0h
1i
b0 k
0[
1Y
b10 g
0n
00
#109049479122
1*
1C
b0 3!
b1000 4!
0!!
0~
0}
1|
0s
0r
0q
1(!
b1000 0!
1t
#109592013844
0*
0C
#110134548566
1*
1C
b11000110 =!
b1 3!
1s
1;
09
16
0(!
1:!
0t
#110677083288
0*
0C
#111219618010
1*
1C
b10 3!
0s
1r
#111762152732
0*
0C
#112304687454
1*
1C
b10 8!
b11 3!
1s
#112847222176
0*
0C
#112847222228
0(
0B
0-
b10001111 +
0=
b1001 %
b1100 &
1Q
0P
0O
0N
1M
0U
#113389756898
1*
1C
b100 3!
b0 8!
0s
0r
1q
#113932291620
0*
0C
#114474826342
1*
1C
07!
b101 3!
0{
1s
#115017361064
0*
0C
#115559895786
1*
1C
b110 3!
0s
1r
#116102430508
0*
0C
#116644965230
1*
1C
b111 3!
1s
#117187499952
0*
0C
#117187500006
1(
1B
b10 f
1h
b1 k
1[
1n
b110 g
0c
b11 b
0X
10
1W
#117730034674
1*
1C
b0 3!
b1001 4!
1!!
0s
0r
0q
1(!
b1001 0!
b10 /!
1t
#118272569396
0*
0C
#118815104118
1*
1C
b1100011 =!
b10 .!
b1 3!
1s
1<
0:
17
05
0(!
b0 0!
0t
#119357638840
0*
0C
#119900173562
1*
1C
b10 3!
0s
1r
#120442708284
0*
0C
#120985243006
1*
1C
b1 8!
b11 3!
1s
#121527777728
0*
0C
#121527777784
0(
0B
b11001110 +
1=
1@
b1101 &
0T
1N
#122070312450
1*
1C
b100 3!
b11 8!
0s
0r
1q
#122612847172
0*
0C
#123155381894
1*
1C
17!
b101 3!
1{
1s
1+!
1w
#123697916616
0*
0C
#124240451338
1*
1C
b110 3!
0s
1r
0+!
0w
#124782986060
0*
0C
#125325520782
1*
1C
b111 3!
1s
#125868055504
0*
0C
#125868055562
1(
1B
b11001110 j
0i
b0 k
b110 f
0Y
b0 g
b1 b
0V
#126410590226
1*
1C
b0 3!
b1010 4!
0!!
1~
0s
0r
0q
b110 /!
#126953124948
0*
0C
#127495659670
1*
1C
b110 .!
b1 3!
1s
#128038194392
0*
0C
#128580729114
1*
1C
b10 3!
0s
1r
#129123263836
0*
0C
#129665798558
1*
1C
b11 3!
1s
#130208333280
0*
0C
#130208333340
0(
0B
b11000101 +
0=
1=
0?
0@
b0 %
b1110 &
0>
1T
0S
0Q
#130750868002
1*
1C
b100 3!
0s
0r
1q
#131293402724
0*
0C
#131835937446
1*
1C
b101 3!
1s
1-!
1y
#132378472168
0*
0C
#132921006890
1*
1C
b110 3!
0s
1r
0-!
b0 /!
1'!
0y
12
#133463541612
0*
0C
#134006076334
1*
1C
b0 .!
b111 3!
1s
0'!
0)!
0*!
02
0u
0v
#134548611056
0*
0C
#134548611118
1(
1B
b0 f
b11000101 j
0d
01
#135091145778
1*
1C
06!
b0 3!
b0 4!
0~
0|
0s
0r
0q
1)!
1*!
0)!
0*!
#135633680500
0*
0C
#136176215222
1*
1C
15!
#136718749944
0*
0C
#137261284666
1*
1C
#137803819388
0*
0C
#138346354110
1*
1C
#138888888832
0*
0C
#138888888896
0(
0B
b10111101 +
b1111 &
1Q
1P
1O
0N
#139431423554
1*
1C
#139973958276
0*
0C
#140516492998
1*
1C
#141059027720
0*
0C
#141601562442
1*
1C
#142144097164
0*
0C
#142686631886
1*
1C
#143229166608
0*
0C
#143229166674
1(
1B
b10111101 j
#143771701330
1*
1C
#144314236052
0*
0C
#144856770774
1*
1C
#145399305496
0*
0C
#145941840218
1*
1C
#146484374940
0*
0C
#147026909662
1*
1C
#147569444384
0*
0C
#147569444452
0(
0B
1-
b1100101 +
b1100101 A
1?
b10000 &
1>
0Q
0P
1N
0M
1U
b1 g
1e
1Z
#148111979106
1*
1C
#148654513828
0*
0C
#149197048550
1*
1C
#149739583272
0*
0C
#150282117994
1*
1C
#150824652716
0*
0C
#151367187438
1*
1C
#151909722160
0*
0C
#151909722230
1(
1B
b1 f
b1100101 m
b1100101 j
0e
b11 g
1d
b0 b
1c
0Z
11
1X
0W
0n
00
1)!
1*!
b1 /!
1u
1v
#152452256882
1*
1C
16!
05!
b1 .!
#152994791604
0*
0C
#153537326326
1*
1C
b1 3!
1s
#154079861048
0*
0C
#154622395770
1*
1C
b10 3!
0s
1r
#155164930492
0*
0C
#155707465214
1*
1C
b10 8!
b11 3!
1s
#156249999936
0*
0C
#156250000008
0(
0B
b1010 +
0=
b1 %
b10001 &
0T
1S
0R
1Q
0O
0N
#156792534658
1*
1C
b100 3!
b0 8!
0s
0r
1q
#157335069380
0*
0C
#157877604102
1*
1C
07!
b101 3!
0{
1s
1,!
1x
#158420138824
0*
0C
#158962673546
1*
1C
b110 3!
0s
1r
0,!
0x
#159505208268
0*
0C
#160047742990
1*
1C
b111 3!
1s
#160590277712
0*
0C
#160590277786
1(
1B
b1 k
b11 f
0c
b10 b
1c
1V
1n
10
#161132812434
1*
1C
b0 3!
b1 4!
1!!
0s
0r
0q
b11 /!
#161675347156
0*
0C
#162217881878
1*
1C
b11 .!
b1 3!
1s
1(!
b1 0!
1t
#162760416600
0*
0C
#163302951322
1*
1C
b110001 =!
b10 3!
0s
1r
0;
18
06
0(!
0:!
0t
#163845486044
0*
0C
#164388020766
1*
1C
b1 8!
b11 3!
1s
#164930555488
0*
0C
#164930555564
0(
0B
0-
b100000 +
1=
b10 %
b10010 &
0S
0Q
1O
0U
#165473090210
1*
1C
b100 3!
b11 8!
0s
0r
1q
#166015624932
0*
0C
#166558159654
1*
1C
17!
b101 3!
1{
1s
#167100694376
0*
0C
#167643229098
1*
1C
b110 3!
0s
1r
#168185763820
0*
0C
#168728298542
1*
1C
b111 3!
1s
#169270833264
0*
0C
#169270833342
1(
1B
0h
b10 k
0[
0n
00
#169813367986
1*
1C
b0 3!
b10 4!
0!!
1~
0s
0r
0q
1(!
b10 0!
1t
#170355902708
0*
0C
#170898437430
1*
1C
b10011000 =!
b1 3!
1s
0<
19
07
15
0(!
0t
#171440972152
0*
0C
#171983506874
1*
1C
b10 3!
0s
1r
#172526041596
0*
0C
#173068576318
1*
1C
b10 8!
b11 3!
1s
#173611111040
0*
0C
#173611111120
0(
0B
b10011101 +
0=
b11 %
b10011 &
1T
1R
1Q
1P
0O
1M
#174153645762
1*
1C
b100 3!
b0 8!
0s
0r
1q
#174696180484
0*
0C
#175238715206
1*
1C
07!
b101 3!
0{
1s
#175781249928
0*
0C
#176323784650
1*
1C
b110 3!
0s
1r
#176866319372
0*
0C
#177408854094
1*
1C
b111 3!
1s
#177951388816
0*
0C
#177951388898
1(
1B
1h
b11 k
1[
1n
10
#178493923538
1*
1C
b0 3!
b11 4!
1!!
0s
0r
0q
1(!
b11 0!
1t
#179036458260
0*
0C
#179578992982
1*
1C
b1001100 =!
b1 3!
1s
1:
08
16
05
0(!
0t
#180121527704
0*
0C
#180664062426
1*
1C
b10 3!
0s
1r
#181206597148
0*
0C
#181749131870
1*
1C
b1 8!
b11 3!
1s
#182291666592
0*
0C
#182291666676
0(
0B
b10011 +
1=
b100 %
b10100 &
1S
0R
0Q
0M
#182834201314
1*
1C
b100 3!
b11 8!
0s
0r
1q
#183376736036
0*
0C
#183919270758
1*
1C
17!
b101 3!
1{
1s
#184461805480
0*
0C
#185004340202
1*
1C
b110 3!
0s
1r
#185546874924
0*
0C
#186089409646
1*
1C
b111 3!
1s
#186631944368
0*
0C
#186631944454
1(
1B
0h
b100 k
0[
0n
00
#187174479090
1*
1C
b0 3!
b100 4!
0!!
0~
1}
0s
0r
0q
1(!
b100 0!
1t
#187717013812
0*
0C
#188259548534
1*
1C
b10100110 =!
b1 3!
1s
1;
09
17
06
15
0(!
1:!
0t
#188802083256
0*
0C
#189344617978
1*
1C
b10 3!
0s
1r
#189887152700
0*
0C
#190429687422
1*
1C
b10 8!
b11 3!
1s
#190972222144
0*
0C
#190972222232
0(
0B
1-
b1010011 +
0=
b101 %
b10101 &
1N
1U
#191514756866
1*
1C
b100 3!
b0 8!
0s
0r
1q
#192057291588
0*
0C
#192599826310
1*
1C
07!
b101 3!
0{
1s
#193142361032
0*
0C
#193684895754
1*
1C
b110 3!
0s
1r
#194227430476
0*
0C
#194769965198
1*
1C
b111 3!
1s
#195312499920
0*
0C
#195312500010
1(
1B
b101 k
#195855034642
1*
1C
b0 3!
b101 4!
1!!
0s
0r
0q
1(!
b101 0!
1t
#196397569364
0*
0C
#196940104086
1*
1C
b1010011 =!
b1 3!
1s
1<
0:
18
07
16
05
0(!
0t
#197482638808
0*
0C
