UART/UART_TX.vcd
$date
	Sat Jan 17 03:47:48 2026
$end
$version
	QuestaSim Version 2021.1
$end
$timescale
	1fs
$end

$scope module UART_tb $end
$var parameter 32 ! PRESCALE $end
$var parameter 0 " CLOCK_FREQ_TX $end
$var parameter 0 # CLOCK_PERIOD_TX $end
$var parameter 0 $ CLOCK_PERIOD $end
$var reg 4 % count [3:0] $end
$var integer 32 & correct $end
$var integer 32 ' error $end
$var reg 1 ( clk_tb $end
$var reg 1 ) rst_n_tb $end
$var reg 1 * clk_RX $end
$var reg 8 + P_DATA_tb [7:0] $end
$var reg 6 , Prescale_tb [5:0] $end
$var reg 1 - Data_Valid_tb $end
$var reg 1 . Par_En_tb $end
$var reg 1 / Par_Typ_tb $end
$var wire 1 0 TX_OUT_tb $end
$var wire 1 1 Busy_tb $end
$var wire 1 2 RX_OUT_V_tb $end
$var wire 1 3 PAR_Err_tb $end
$var wire 1 4 STP_Err_tb $end
$var wire 1 5 RX_OUT_P_tb [7] $end
$var wire 1 6 RX_OUT_P_tb [6] $end
$var wire 1 7 RX_OUT_P_tb [5] $end
$var wire 1 8 RX_OUT_P_tb [4] $end
$var wire 1 9 RX_OUT_P_tb [3] $end
$var wire 1 : RX_OUT_P_tb [2] $end
$var wire 1 ; RX_OUT_P_tb [1] $end
$var wire 1 < RX_OUT_P_tb [0] $end
$var reg 1 = TX_OUT_expec $end
$var reg 1 > Busy_expec $end
$var reg 1 ? Busy_expec_temp $end
$var reg 1 @ done $end
$var reg 8 A P_DATA_reg [7:0] $end

$scope task initialize $end
$upscope $end

$scope task reset $end
$upscope $end

$scope task check_out $end
$upscope $end

$scope module DUT $end
$var wire 1 B TX_CLK $end
$var wire 1 C RX_CLK $end
$var wire 1 D rst_n $end
$var wire 1 E Par_En $end
$var wire 1 F Par_Typ $end
$var wire 1 G Prescale [5] $end
$var wire 1 H Prescale [4] $end
$var wire 1 I Prescale [3] $end
$var wire 1 J Prescale [2] $end
$var wire 1 K Prescale [1] $end
$var wire 1 L Prescale [0] $end
$var wire 1 0 RX_IN_S $end
$var wire 1 5 RX_OUT_P [7] $end
$var wire 1 6 RX_OUT_P [6] $end
$var wire 1 7 RX_OUT_P [5] $end
$var wire 1 8 RX_OUT_P [4] $end
$var wire 1 9 RX_OUT_P [3] $end
$var wire 1 : RX_OUT_P [2] $end
$var wire 1 ; RX_OUT_P [1] $end
$var wire 1 < RX_OUT_P [0] $end
$var wire 1 2 RX_OUT_V $end
$var wire 1 3 PAR_Err $end
$var wire 1 4 STP_Err $end
$var wire 1 M TX_IN_P [7] $end
$var wire 1 N TX_IN_P [6] $end
$var wire 1 O TX_IN_P [5] $end
$var wire 1 P TX_IN_P [4] $end
$var wire 1 Q TX_IN_P [3] $end
$var wire 1 R TX_IN_P [2] $end
$var wire 1 S TX_IN_P [1] $end
$var wire 1 T TX_IN_P [0] $end
$var wire 1 U TX_IN_V $end
$var wire 1 0 TX_OUT_S $end
$var wire 1 1 TX_OUT_V $end

$scope module TX_U0 $end
$var wire 1 B clk $end
$var wire 1 D rst_n $end
$var wire 1 M P_DATA [7] $end
$var wire 1 N P_DATA [6] $end
$var wire 1 O P_DATA [5] $end
$var wire 1 P P_DATA [4] $end
$var wire 1 Q P_DATA [3] $end
$var wire 1 R P_DATA [2] $end
$var wire 1 S P_DATA [1] $end
$var wire 1 T P_DATA [0] $end
$var wire 1 U Data_Valid $end
$var wire 1 E Par_En $end
$var wire 1 F Par_Typ $end
$var wire 1 0 TX_OUT $end
$var wire 1 1 Busy $end
$var wire 1 V mux_sel [1] $end
$var wire 1 W mux_sel [0] $end
$var wire 1 X ser_en $end
$var wire 1 Y ser_done $end
$var wire 1 Z capture $end
$var wire 1 [ s_data $end
$var wire 1 \ parity $end

$scope module FSM_U0 $end
$var parameter 3 ] IDLE $end
$var parameter 3 ^ START_BIT $end
$var parameter 3 _ DATA_BITS $end
$var parameter 3 ` PARITY_BIT $end
$var parameter 3 a STOP_BIT $end
$var wire 1 B clk $end
$var wire 1 D rst_n $end
$var wire 1 U Data_Valid $end
$var wire 1 Y Ser_Done $end
$var wire 1 E Par_En $end
$var reg 2 b MUX_SEL [1:0] $end
$var reg 1 c Ser_En $end
$var reg 1 d Busy $end
$var reg 1 e Capture $end
$var reg 3 f current_state [2:0] $end
$var reg 3 g next_state [2:0] $end
$upscope $end

$scope module Serializer_U1 $end
$var wire 1 B clk $end
$var wire 1 D rst_n $end
$var wire 1 M P_DATA [7] $end
$var wire 1 N P_DATA [6] $end
$var wire 1 O P_DATA [5] $end
$var wire 1 P P_DATA [4] $end
$var wire 1 Q P_DATA [3] $end
$var wire 1 R P_DATA [2] $end
$var wire 1 S P_DATA [1] $end
$var wire 1 T P_DATA [0] $end
$var wire 1 X Ser_En $end
$var reg 1 h Ser_Data $end
$var reg 1 i Ser_Done $end
$var reg 8 j data_reg [7:0] $end
$var reg 3 k bit_count [2:0] $end
$upscope $end

$scope module Parity_Calc_U2 $end
$var wire 1 B clk $end
$var wire 1 D rst_n $end
$var wire 1 M P_DATA [7] $end
$var wire 1 N P_DATA [6] $end
$var wire 1 O P_DATA [5] $end
$var wire 1 P P_DATA [4] $end
$var wire 1 Q P_DATA [3] $end
$var wire 1 R P_DATA [2] $end
$var wire 1 S P_DATA [1] $end
$var wire 1 T P_DATA [0] $end
$var wire 1 Z Capture $end
$var wire 1 F Par_Type $end
$var reg 1 l parity_out $end
$var reg 8 m data_reg [7:0] $end
$upscope $end

$scope module MUX4x1_U3 $end
$var wire 1 [ Ser_Data $end
$var wire 1 \ Par_Bit $end
$var wire 1 V SEL [1] $end
$var wire 1 W SEL [0] $end
$var reg 1 n OUT $end
$upscope $end
$upscope $end

$scope module RX_U1 $end
$var wire 1 C clk $end
$var wire 1 D rst_n $end
$var wire 1 0 RX_IN $end
$var wire 1 G Prescale [5] $end
$var wire 1 H Prescale [4] $end
$var wire 1 I Prescale [3] $end
$var wire 1 J Prescale [2] $end
$var wire 1 K Prescale [1] $end
$var wire 1 L Prescale [0] $end
$var wire 1 E Par_En $end
$var wire 1 F Par_Typ $end
$var wire 1 5 P_DATA [7] $end
$var wire 1 6 P_DATA [6] $end
$var wire 1 7 P_DATA [5] $end
$var wire 1 8 P_DATA [4] $end
$var wire 1 9 P_DATA [3] $end
$var wire 1 : P_DATA [2] $end
$var wire 1 ; P_DATA [1] $end
$var wire 1 < P_DATA [0] $end
$var wire 1 2 Data_Valid $end
$var wire 1 3 PAR_Err $end
$var wire 1 4 STP_Err $end
$var wire 1 o edge_cnt [4] $end
$var wire 1 p edge_cnt [3] $end
$var wire 1 q edge_cnt [2] $end
$var wire 1 r edge_cnt [1] $end
$var wire 1 s edge_cnt [0] $end
$var wire 1 t deser_en $end
$var wire 1 u dat_samp_en $end
$var wire 1 v enable $end
$var wire 1 w par_chk_en $end
$var wire 1 x strt_chk_en $end
$var wire 1 y stp_chk_en $end
$var wire 1 z strt_glitch $end
$var wire 1 { sampled_bit $end
$var wire 1 | bit_cnt [3] $end
$var wire 1 } bit_cnt [2] $end
$var wire 1 ~ bit_cnt [1] $end
$var wire 1 !! bit_cnt [0] $end

$scope module FSM_U1 $end
$var parameter 3 "! IDLE $end
$var parameter 3 #! START_BIT $end
$var parameter 3 $! DATA_BITS $end
$var parameter 3 %! PARITY_BIT $end
$var parameter 3 &! STOP_BIT $end
$var wire 1 C clk $end
$var wire 1 D rst_n $end
$var wire 1 0 RX_IN $end
$var wire 1 E Par_En $end
$var wire 1 G Prescale [5] $end
$var wire 1 H Prescale [4] $end
$var wire 1 I Prescale [3] $end
$var wire 1 J Prescale [2] $end
$var wire 1 K Prescale [1] $end
$var wire 1 L Prescale [0] $end
$var wire 1 o edge_cnt [4] $end
$var wire 1 p edge_cnt [3] $end
$var wire 1 q edge_cnt [2] $end
$var wire 1 r edge_cnt [1] $end
$var wire 1 s edge_cnt [0] $end
$var wire 1 | bit_cnt [3] $end
$var wire 1 } bit_cnt [2] $end
$var wire 1 ~ bit_cnt [1] $end
$var wire 1 !! bit_cnt [0] $end
$var wire 1 3 par_err $end
$var wire 1 z strt_glitch $end
$var wire 1 4 stp_err $end
$var reg 1 '! Data_Valid $end
$var reg 1 (! deser_en $end
$var reg 1 )! dat_samp_en $end
$var reg 1 *! enable $end
$var reg 1 +! par_chk_en $end
$var reg 1 ,! strt_chk_en $end
$var reg 1 -! stp_chk_en $end
$var reg 3 .! current_state [2:0] $end
$var reg 3 /! next_state [2:0] $end
$var reg 4 0! bit_count [3:0] $end
$var reg 1 1! parity_error_flag $end
$upscope $end

$scope module EBC_U1 $end
$var wire 1 C clk $end
$var wire 1 D rst_n $end
$var wire 1 v enable $end
$var wire 1 G Prescale [5] $end
$var wire 1 H Prescale [4] $end
$var wire 1 I Prescale [3] $end
$var wire 1 J Prescale [2] $end
$var wire 1 K Prescale [1] $end
$var wire 1 L Prescale [0] $end
$var reg 5 2! edge_cnt [4:0] $end
$var reg 4 3! bit_cnt [3:0] $end
$var reg 1 4! first_edge $end
$var reg 1 5! enable_reg $end
$upscope $end

$scope module DS_U2 $end
$var wire 1 C clk $end
$var wire 1 D rst_n $end
$var wire 1 0 RX_IN $end
$var wire 1 u dat_samp_en $end
$var wire 1 G Prescale [5] $end
$var wire 1 H Prescale [4] $end
$var wire 1 I Prescale [3] $end
$var wire 1 J Prescale [2] $end
$var wire 1 K Prescale [1] $end
$var wire 1 L Prescale [0] $end
$var wire 1 o edge_cnt [4] $end
$var wire 1 p edge_cnt [3] $end
$var wire 1 q edge_cnt [2] $end
$var wire 1 r edge_cnt [1] $end
$var wire 1 s edge_cnt [0] $end
$var reg 1 6! sampled_bit $end
$var reg 2 7! data_temp [1:0] $end
$upscope $end

$scope module PC_U3 $end
$var wire 1 C clk $end
$var wire 1 D rst_n $end
$var wire 1 w par_chk_en $end
$var wire 1 F Par_Typ $end
$var wire 1 5 P_DATA [7] $end
$var wire 1 6 P_DATA [6] $end
$var wire 1 7 P_DATA [5] $end
$var wire 1 8 P_DATA [4] $end
$var wire 1 9 P_DATA [3] $end
$var wire 1 : P_DATA [2] $end
$var wire 1 ; P_DATA [1] $end
$var wire 1 < P_DATA [0] $end
$var wire 1 { sampled_bit $end
$var reg 1 8! par_err $end
$var reg 1 9! parity_bit $end
$upscope $end

$scope module SC_U4 $end
$var wire 1 C clk $end
$var wire 1 D rst_n $end
$var wire 1 x strt_chk_en $end
$var wire 1 { sampled_bit $end
$var reg 1 :! strt_glitch $end
$upscope $end

$scope module STPC_U5 $end
$var wire 1 C clk $end
$var wire 1 D rst_n $end
$var wire 1 y stp_chk_en $end
$var wire 1 { sampled_bit $end
$var reg 1 ;! stp_err $end
$upscope $end

$scope module DESER_U6 $end
$var wire 1 C clk $end
$var wire 1 D rst_n $end
$var wire 1 t deser_en $end
$var wire 1 { sampled_bit $end
$var reg 8 <! P_DATA [7:0] $end
$upscope $end
$upscope $end
$upscope $end
$upscope $end
$enddefinitions $end
#0
$dumpvars
b0 %
0(
1)
0*
b11111111 +
b100000 ,
0-
0.
0/
1=
0>
0?
0@
bx A
bx b
xc
xd
0e
bx f
b0 g
xh
xi
bx j
bx k
xl
bx m
xn
0'!
0(!
1)!
1*!
0+!
0,!
0-!
bx .!
b0 /!
b0 0!
x1!
bx 2!
bx 3!
x4!
x5!
x6!
bx 7!
x8!
x9!
x:!
x;!
bx <!
b100000 !
b0 ]
b1 ^
b11 _
b10 `
b110 a
b0 "!
b1 #!
b11 $!
b10 %!
b110 &!
r115.2 "
r8680.555555555555 #
r271.2673611111111 $
b0 &
b0 '
x0
x1
02
x3
x4
x<
x;
x:
x9
x8
x7
x6
x5
xW
xV
xX
xY
0Z
x[
x\
xs
xr
xq
xp
xo
0t
1u
1v
0w
0x
0y
xz
x{
x!!
x~
x}
x|
0U
1T
1S
1R
1Q
1P
1O
1N
1M
0L
0K
0J
0I
0H
1G
0F
0E
1D
0C
0B
$end
#135633681
1*
1C
b0 .!
15!
08!
0:!
0;!
03
0z
04
0)!
0*!
0u
0v
#271267362
0*
0C
#406901043
1*
1C
b11 7!
16!
05!
b0 2!
b0 3!
01!
1{
0!!
0~
0}
0|
0s
0r
0q
0p
0o
1)!
1*!
0)!
0*!
#542534724
0*
0C
#678168405
1*
1C
14!
#813802086
0*
0C
#949435767
1*
1C
#1085069448
0*
0C
#1220703129
1*
1C
#1356336810
0*
0C
#1491970491
1*
1C
#1627604172
0*
0C
#1763237853
1*
1C
#1898871534
0*
0C
#2034505215
1*
1C
#2170138896
0*
0C
#2305772577
1*
1C
#2441406258
0*
0C
#2577039939
1*
1C
#2712673620
0*
0C
#2848307301
1*
1C
#2983940982
0*
0C
#3119574663
1*
1C
#3255208344
0*
0C
#3390842025
1*
1C
#3526475706
0*
0C
#3662109387
1*
1C
#3797743068
0*
0C
#3933376749
1*
1C
#4069010430
0*
0C
#4204644111
1*
1C
#4340277778
1(
1B
b0 f
b11111111 j
0i
b0 k
0Y
0c
1d
b1 b
0d
0X
01
1W
0V
1n
10
1)!
1*!
0)!
0*!
#4340277792
0*
0C
#4475911473
1*
1C
#4611545154
0*
0C
#4747178835
1*
1C
#4882812516
0*
0C
#5018446197
1*
1C
#5154079878
0*
0C
#5289713559
1*
1C
#5425347240
0*
0C
#5560980921
1*
1C
#5696614602
0*
0C
#5832248283
1*
1C
#5967881964
0*
0C
#6103515645
1*
1C
#6239149326
0*
0C
#6374783007
1*
1C
#6510416688
0*
0C
#6646050369
1*
1C
#6781684050
0*
0C
#6917317731
1*
1C
#7052951412
0*
0C
#7188585093
1*
1C
#7324218774
0*
0C
#7459852455
1*
1C
#7595486136
0*
0C
#7731119817
1*
1C
#7866753498
0*
0C
#8002387179
1*
1C
#8138020860
0*
0C
#8273654541
1*
1C
#8409288222
0*
0C
#8544921903
1*
1C
#8680555556
0(
0B
0)
0D
15!
b0 <!
0h
b0 j
0l
b0 m
0<
0;
0:
09
08
07
06
05
0[
0\
09!
#8680555584
0*
0C
#8816189265
1*
1C
#8951822946
0*
0C
#9087456627
1*
1C
#9223090308
0*
0C
#9358723989
1*
1C
#9494357670
0*
0C
#9629991351
1*
1C
#9765625032
0*
0C
#9901258713
1*
1C
#10036892394
0*
0C
#10172526075
1*
1C
#10308159756
0*
0C
#10443793437
1*
1C
#10579427118
0*
0C
#10715060799
1*
1C
#10850694480
0*
0C
#10986328161
1*
1C
#11121961842
0*
0C
#11257595523
1*
1C
#11393229204
0*
0C
#11528862885
1*
1C
#11664496566
0*
0C
#11800130247
1*
1C
#11935763928
0*
0C
#12071397609
1*
1C
#12207031290
0*
0C
#12342664971
1*
1C
#12478298652
0*
0C
#12613932333
1*
1C
#12749566014
0*
0C
#12885199695
1*
1C
#13020833334
1(
1B
#13020833376
0*
0C
#13156467057
1*
1C
#13292100738
0*
0C
#13427734419
1*
1C
#13563368100
0*
0C
#13699001781
1*
1C
#13834635462
0*
0C
#13970269143
1*
1C
#14105902824
0*
0C
#14241536505
1*
1C
#14377170186
0*
0C
#14512803867
1*
1C
#14648437548
0*
0C
#14784071229
1*
1C
#14919704910
0*
0C
#15055338591
1*
1C
#15190972272
0*
0C
#15326605953
1*
1C
#15462239634
0*
0C
#15597873315
1*
1C
#15733506996
0*
0C
#15869140677
1*
1C
#16004774358
0*
0C
#16140408039
1*
1C
#16276041720
0*
0C
#16411675401
1*
1C
#16547309082
0*
0C
#16682942763
1*
1C
#16818576444
0*
0C
#16954210125
1*
1C
#17089843806
0*
0C
#17225477487
1*
1C
#17361111112
0(
0B
1)
b1 &
1D
#17361111168
0*
0C
#17496744849
1*
1C
05!
#17632378530
0*
0C
#17768012211
1*
1C
#17903645892
0*
0C
#18039279573
1*
1C
#18174913254
0*
0C
#18310546935
1*
1C
#18446180616
0*
0C
#18581814297
1*
1C
#18717447978
0*
0C
#18853081659
1*
1C
#18988715340
0*
0C
#19124349021
1*
1C
#19259982702
0*
0C
#19395616383
1*
1C
#19531250064
0*
0C
#19666883745
1*
1C
#19802517426
0*
0C
#19938151107
1*
1C
#20073784788
0*
0C
#20209418469
1*
1C
#20345052150
0*
0C
#20480685831
1*
1C
#20616319512
0*
0C
#20751953193
1*
1C
#20887586874
0*
0C
#21023220555
1*
1C
#21158854236
0*
0C
#21294487917
1*
1C
#21430121598
0*
0C
#21565755279
1*
1C
#21701388890
1(
1B
b11111111 j
#21701388960
0*
0C
#21837022641
1*
1C
#21972656322
0*
0C
#22108290003
1*
1C
#22243923684
0*
0C
#22379557365
1*
1C
#22515191046
0*
0C
#22650824727
1*
1C
#22786458408
0*
0C
#22922092089
1*
1C
#23057725770
0*
0C
#23193359451
1*
1C
#23328993132
0*
0C
#23464626813
1*
1C
#23600260494
0*
0C
#23735894175
1*
1C
#23871527856
0*
0C
#24007161537
1*
1C
#24142795218
0*
0C
#24278428899
1*
1C
#24414062580
0*
0C
#24549696261
1*
1C
#24685329942
0*
0C
#24820963623
1*
1C
#24956597304
0*
0C
#25092230985
1*
1C
#25227864666
0*
0C
#25363498347
1*
1C
#25499132028
0*
0C
#25634765709
1*
1C
#25770399390
0*
0C
#25906033071
1*
1C
#26041666668
0(
0B
b10000001 +
1.
1/
b10 &
0S
0R
0Q
0P
0O
0N
1E
1F
19!
1)!
1*!
0)!
0*!
#26041666752
0*
0C
#26177300433
1*
1C
#26312934114
0*
0C
#26448567795
1*
1C
#26584201476
0*
0C
#26719835157
1*
1C
#26855468838
0*
0C
#26991102519
1*
1C
#27126736200
0*
0C
#27262369881
1*
1C
#27398003562
0*
0C
#27533637243
1*
1C
#27669270924
0*
0C
#27804904605
1*
1C
#27940538286
0*
0C
#28076171967
1*
1C
#28211805648
0*
0C
#28347439329
1*
1C
#28483073010
0*
0C
#28618706691
1*
1C
#28754340372
0*
0C
#28889974053
1*
1C
#29025607734
0*
0C
#29161241415
1*
1C
#29296875096
0*
0C
#29432508777
1*
1C
#29568142458
0*
0C
#29703776139
1*
1C
#29839409820
0*
0C
#29975043501
1*
1C
#30110677182
0*
0C
#30246310863
1*
1C
#30381944446
1(
1B
1l
b10000001 j
1\
#30381944544
0*
0C
#30517578225
1*
1C
#30653211906
0*
0C
#30788845587
1*
1C
#30924479268
0*
0C
#31060112949
1*
1C
#31195746630
0*
0C
#31331380311
1*
1C
#31467013992
0*
0C
#31602647673
1*
1C
#31738281354
0*
0C
#31873915035
1*
1C
#32009548716
0*
0C
#32145182397
1*
1C
#32280816078
0*
0C
#32416449759
1*
1C
#32552083440
0*
0C
#32687717121
1*
1C
#32823350802
0*
0C
#32958984483
1*
1C
#33094618164
0*
0C
#33230251845
1*
1C
#33365885526
0*
0C
#33501519207
1*
1C
#33637152888
0*
0C
#33772786569
1*
1C
#33908420250
0*
0C
#34044053931
1*
1C
#34179687612
0*
0C
#34315321293
1*
1C
#34450954974
0*
0C
#34586588655
1*
1C
#34722222224
0(
0B
1-
b1100011 +
b1100011 A
1?
b11 &
1>
1S
1O
1N
0M
1U
b1 g
1e
1Z
#34722222336
0*
0C
#34857856017
1*
1C
#34993489698
0*
0C
#35129123379
1*
1C
#35264757060
0*
0C
#35400390741
1*
1C
#35536024422
0*
0C
#35671658103
1*
1C
#35807291784
0*
0C
#35942925465
1*
1C
#36078559146
0*
0C
#36214192827
1*
1C
#36349826508
0*
0C
#36485460189
1*
1C
#36621093870
0*
0C
#36756727551
1*
1C
#36892361232
0*
0C
#37027994913
1*
1C
#37163628594
0*
0C
#37299262275
1*
1C
#37434895956
0*
0C
#37570529637
1*
1C
#37706163318
0*
0C
#37841796999
1*
1C
#37977430680
0*
0C
#38113064361
1*
1C
#38248698042
0*
0C
#38384331723
1*
1C
#38519965404
0*
0C
#38655599085
1*
1C
#38791232766
0*
0C
#38926866447
1*
1C
#39062500002
1(
1B
b1 f
b1100011 j
b1100011 m
0e
b11 g
1d
b0 b
1c
0Z
11
1X
0W
0n
00
1)!
1*!
b1 /!
1u
1v
#39062500128
0*
0C
#39198133809
1*
1C
15!
04!
b1 .!
#39333767490
0*
0C
#39469401171
1*
1C
b1 2!
1s
#39605034852
0*
0C
#39740668533
1*
1C
b10 2!
0s
1r
#39876302214
0*
0C
#40011935895
1*
1C
b11 2!
1s
#40147569576
0*
0C
#40283203257
1*
1C
b100 2!
0s
0r
1q
#40418836938
0*
0C
#40554470619
1*
1C
b101 2!
1s
#40690104300
0*
0C
#40825737981
1*
1C
b110 2!
0s
1r
#40961371662
0*
0C
#41097005343
1*
1C
b111 2!
1s
#41232639024
0*
0C
#41368272705
1*
1C
b1000 2!
0s
0r
0q
1p
#41503906386
0*
0C
#41639540067
1*
1C
b1001 2!
1s
#41775173748
0*
0C
#41910807429
1*
1C
b1010 2!
0s
1r
#42046441110
0*
0C
#42182074791
1*
1C
b1011 2!
1s
#42317708472
0*
0C
#42453342153
1*
1C
b1100 2!
0s
0r
1q
#42588975834
0*
0C
#42724609515
1*
1C
b1101 2!
1s
#42860243196
0*
0C
#42995876877
1*
1C
b1110 2!
0s
1r
#43131510558
0*
0C
#43267144239
1*
1C
b10 7!
b1111 2!
1s
#43402777780
0(
0B
b10001101 +
0=
b1 %
b100 &
0S
1R
1Q
0O
0N
1M
#43402777920
0*
0C
#43538411601
1*
1C
b10000 2!
b0 7!
0s
0r
0q
0p
1o
#43674045282
0*
0C
#43809678963
1*
1C
06!
b10001 2!
0{
1s
1,!
1x
#43945312644
0*
0C
#44080946325
1*
1C
b10010 2!
0s
1r
0,!
0x
#44216580006
0*
0C
#44352213687
1*
1C
b10011 2!
1s
#44487847368
0*
0C
#44623481049
1*
1C
b10100 2!
0s
0r
1q
#44759114730
0*
0C
#44894748411
1*
1C
b10101 2!
1s
#45030382092
0*
0C
#45166015773
1*
1C
b10110 2!
0s
1r
#45301649454
0*
0C
#45437283135
1*
1C
b10111 2!
1s
#45572916816
0*
0C
#45708550497
1*
1C
b11000 2!
0s
0r
0q
1p
#45844184178
0*
0C
#45979817859
1*
1C
b11001 2!
1s
#46115451540
0*
0C
#46251085221
1*
1C
b11010 2!
0s
1r
#46386718902
0*
0C
#46522352583
1*
1C
b11011 2!
1s
#46657986264
0*
0C
#46793619945
1*
1C
b11100 2!
0s
0r
1q
#46929253626
0*
0C
#47064887307
1*
1C
b11101 2!
1s
#47200520988
0*
0C
#47336154669
1*
1C
b11110 2!
0s
1r
#47471788350
0*
0C
#47607422031
1*
1C
b11111 2!
1s
#47743055558
1(
1B
1h
b1 k
b11 f
1[
0c
b10 b
1c
1V
1n
10
#47743055712
0*
0C
#47878689393
1*
1C
b0 2!
b1 3!
1!!
0s
0r
0q
0p
0o
b11 /!
#48014323074
0*
0C
#48149956755
1*
1C
b11 .!
b1 2!
1s
1(!
b1 0!
1t
#48285590436
0*
0C
#48421224117
1*
1C
b10 2!
0s
1r
0(!
0t
#48556857798
0*
0C
#48692491479
1*
1C
b11 2!
1s
#48828125160
0*
0C
#48963758841
1*
1C
b100 2!
0s
0r
1q
#49099392522
0*
0C
#49235026203
1*
1C
b101 2!
1s
#49370659884
0*
0C
#49506293565
1*
1C
b110 2!
0s
1r
#49641927246
0*
0C
#49777560927
1*
1C
b111 2!
1s
#49913194608
0*
0C
#50048828289
1*
1C
b1000 2!
0s
0r
0q
1p
#50184461970
0*
0C
#50320095651
1*
1C
b1001 2!
1s
#50455729332
0*
0C
#50591363013
1*
1C
b1010 2!
0s
1r
#50726996694
0*
0C
#50862630375
1*
1C
b1011 2!
1s
#50998264056
0*
0C
#51133897737
1*
1C
b1100 2!
0s
0r
1q
#51269531418
0*
0C
#51405165099
1*
1C
b1101 2!
1s
#51540798780
0*
0C
#51676432461
1*
1C
b1110 2!
0s
1r
#51812066142
0*
0C
#51947699823
1*
1C
b1 7!
b1111 2!
1s
#52083333336
0(
0B
b10010 +
1=
b10 %
b101 &
0T
1S
0R
0Q
1P
0M
#52083333504
0*
0C
#52218967185
1*
1C
b10000 2!
b11 7!
0s
0r
0q
0p
1o
#52354600866
0*
0C
#52490234547
1*
1C
16!
b10001 2!
1{
1s
#52625868228
0*
0C
#52761501909
1*
1C
b10010 2!
0s
1r
#52897135590
0*
0C
#53032769271
1*
1C
b10011 2!
1s
#53168402952
0*
0C
#53304036633
1*
1C
b10100 2!
0s
0r
1q
#53439670314
0*
0C
#53575303995
1*
1C
b10101 2!
1s
#53710937676
0*
0C
#53846571357
1*
1C
b10110 2!
0s
1r
#53982205038
0*
0C
#54117838719
1*
1C
b10111 2!
1s
#54253472400
0*
0C
#54389106081
1*
1C
b11000 2!
0s
0r
0q
1p
#54524739762
0*
0C
#54660373443
1*
1C
b11001 2!
1s
#54796007124
0*
0C
#54931640805
1*
1C
b11010 2!
0s
1r
#55067274486
0*
0C
#55202908167
1*
1C
b11011 2!
1s
#55338541848
0*
0C
#55474175529
1*
1C
b11100 2!
0s
0r
1q
#55609809210
0*
0C
#55745442891
1*
1C
b11101 2!
1s
#55881076572
0*
0C
#56016710253
1*
1C
b11110 2!
0s
1r
#56152343934
0*
0C
#56287977615
1*
1C
b11111 2!
1s
#56423611114
1(
1B
b10 k
#56423611296
0*
0C
#56559244977
1*
1C
b0 2!
b10 3!
0!!
1~
0s
0r
0q
0p
0o
1(!
b10 0!
1t
#56694878658
0*
0C
#56830512339
1*
1C
b10000000 <!
b1 2!
1s
15
0(!
09!
0t
#56966146020
0*
0C
#57101779701
1*
1C
b10 2!
0s
1r
#57237413382
0*
0C
#57373047063
1*
1C
b11 2!
1s
#57508680744
0*
0C
#57644314425
1*
1C
b100 2!
0s
0r
1q
#57779948106
0*
0C
#57915581787
1*
1C
b101 2!
1s
#58051215468
0*
0C
#58186849149
1*
1C
b110 2!
0s
1r
#58322482830
0*
0C
#58458116511
1*
1C
b111 2!
1s
#58593750192
0*
0C
#58729383873
1*
1C
b1000 2!
0s
0r
0q
1p
#58865017554
0*
0C
#59000651235
1*
1C
b1001 2!
1s
#59136284916
0*
0C
#59271918597
1*
1C
b1010 2!
0s
1r
#59407552278
0*
0C
#59543185959
1*
1C
b1011 2!
1s
#59678819640
0*
0C
#59814453321
1*
1C
b1100 2!
0s
0r
1q
#59950087002
0*
0C
#60085720683
1*
1C
b1101 2!
1s
#60221354364
0*
0C
#60356988045
1*
1C
b1110 2!
0s
1r
#60492621726
0*
0C
#60628255407
1*
1C
b1111 2!
1s
#60763888892
0(
0B
b1101 +
0=
1=
b11 %
b110 &
1T
0S
1R
1Q
0P
#60763889088
0*
0C
#60899522769
1*
1C
b10000 2!
0s
0r
0q
0p
1o
#61035156450
0*
0C
#61170790131
1*
1C
b10001 2!
1s
#61306423812
0*
0C
#61442057493
1*
1C
b10010 2!
0s
1r
#61577691174
0*
0C
#61713324855
1*
1C
b10011 2!
1s
#61848958536
0*
0C
#61984592217
1*
1C
b10100 2!
0s
0r
1q
#62120225898
0*
0C
#62255859579
1*
1C
b10101 2!
1s
#62391493260
0*
0C
#62527126941
1*
1C
b10110 2!
0s
1r
#62662760622
0*
0C
#62798394303
1*
1C
b10111 2!
1s
#62934027984
0*
0C
#63069661665
1*
1C
b11000 2!
0s
0r
0q
1p
#63205295346
0*
0C
#63340929027
1*
1C
b11001 2!
1s
#63476562708
0*
0C
#63612196389
1*
1C
b11010 2!
0s
1r
#63747830070
0*
0C
#63883463751
1*
1C
b11011 2!
1s
#64019097432
0*
0C
#64154731113
1*
1C
b11100 2!
0s
0r
1q
#64290364794
0*
0C
#64425998475
1*
1C
b11101 2!
1s
#64561632156
0*
0C
#64697265837
1*
1C
b11110 2!
0s
1r
#64832899518
0*
0C
#64968533199
1*
1C
b11111 2!
1s
#65104166670
1(
1B
0h
b11 k
0[
0n
00
#65104166880
0*
0C
#65239800561
1*
1C
b0 2!
b11 3!
1!!
0s
0r
0q
0p
0o
1(!
b11 0!
1t
#65375434242
0*
0C
#65511067923
1*
1C
b11000000 <!
b1 2!
1s
16
0(!
19!
0t
#65646701604
0*
0C
#65782335285
1*
1C
b10 2!
0s
1r
#65917968966
0*
0C
#66053602647
1*
1C
b11 2!
1s
#66189236328
0*
0C
#66324870009
1*
1C
b100 2!
0s
0r
1q
#66460503690
0*
0C
#66596137371
1*
1C
b101 2!
1s
#66731771052
0*
0C
#66867404733
1*
1C
b110 2!
0s
1r
#67003038414
0*
0C
#67138672095
1*
1C
b111 2!
1s
#67274305776
0*
0C
#67409939457
1*
1C
b1000 2!
0s
0r
0q
1p
#67545573138
0*
0C
#67681206819
1*
1C
b1001 2!
1s
#67816840500
0*
0C
#67952474181
1*
1C
b1010 2!
0s
1r
#68088107862
0*
0C
#68223741543
1*
1C
b1011 2!
1s
#68359375224
0*
0C
#68495008905
1*
1C
b1100 2!
0s
0r
1q
#68630642586
0*
0C
#68766276267
1*
1C
b1101 2!
1s
#68901909948
0*
0C
#69037543629
1*
1C
b1110 2!
0s
1r
#69173177310
0*
0C
#69308810991
1*
1C
b10 7!
b1111 2!
1s
#69444444448
0(
0B
0-
b111101 +
0=
b100 %
b111 &
1P
1O
0U
#69444444672
0*
0C
#69580078353
1*
1C
b10000 2!
b0 7!
0s
0r
0q
0p
1o
#69715712034
0*
0C
#69851345715
1*
1C
06!
b10001 2!
0{
1s
#69986979396
0*
0C
#70122613077
1*
1C
b10010 2!
0s
1r
#70258246758
0*
0C
#70393880439
1*
1C
b10011 2!
1s
#70529514120
0*
0C
#70665147801
1*
1C
b10100 2!
0s
0r
1q
#70800781482
0*
0C
#70936415163
1*
1C
b10101 2!
1s
#71072048844
0*
0C
#71207682525
1*
1C
b10110 2!
0s
1r
#71343316206
0*
0C
#71478949887
1*
1C
b10111 2!
1s
#71614583568
0*
0C
#71750217249
1*
1C
b11000 2!
0s
0r
0q
1p
#71885850930
0*
0C
#72021484611
1*
1C
b11001 2!
1s
#72157118292
0*
0C
